simWorkspace/Endat_SPI_Ctrl/test.vcd
$version Generated by VerilatedVcd $end
$date Fri Mar 10 17:46:32 2023
 $end
$timescale   1ns $end

 $scope module TOP $end
  $var wire  1 W* clk $end
  $var wire  6 }) cmddata_payload_Bytenumber [5:0] $end
  $var wire 16 ]) cmddata_payload_CmdData_0 [15:0] $end
  $var wire 16 e) cmddata_payload_CmdData_1 [15:0] $end
  $var wire 16 m) cmddata_payload_CmdData_2 [15:0] $end
  $var wire 16 u) cmddata_payload_CmdData_3 [15:0] $end
  $var wire 16 U) cmddata_payload_Identity_Addr [15:0] $end
  $var wire  1 M) cmddata_valid $end
  $var wire  1 _* reset $end
  $var wire 16 /* rspdata_payload_RspData_0 [15:0] $end
  $var wire 16 7* rspdata_payload_RspData_1 [15:0] $end
  $var wire 16 ?* rspdata_payload_RspData_2 [15:0] $end
  $var wire 16 G* rspdata_payload_RspData_3 [15:0] $end
  $var wire 16 O* rspdata_payload_RspData_4 [15:0] $end
  $var wire  1 '* rspdata_valid $end
  $var wire  1 E) spi_miso $end
  $var wire  1 =) spi_mosi $end
  $var wire  1 5) spi_sclk $end
  $var wire  1 -) spi_ss [0:0] $end
  $scope module Endat_SPI_Ctrl $end
   $var wire  1 W* clk $end
   $var wire  6 }) cmddata_payload_Bytenumber [5:0] $end
   $var wire 16 ]) cmddata_payload_CmdData_0 [15:0] $end
   $var wire 16 e) cmddata_payload_CmdData_1 [15:0] $end
   $var wire 16 m) cmddata_payload_CmdData_2 [15:0] $end
   $var wire 16 u) cmddata_payload_CmdData_3 [15:0] $end
   $var wire 16 U) cmddata_payload_Identity_Addr [15:0] $end
   $var wire  1 M) cmddata_valid $end
   $var wire 16 E% fsm_CmdData_0 [15:0] $end
   $var wire 16 M% fsm_CmdData_1 [15:0] $end
   $var wire 16 U% fsm_CmdData_2 [15:0] $end
   $var wire 16 ]% fsm_CmdData_3 [15:0] $end
   $var wire  2 e% fsm_Cycle [1:0] $end
   $var wire 16 !' fsm_Identity_Addr [15:0] $end
   $var wire  4 )' fsm_counter [3:0] $end
   $var wire  3 g* fsm_enumDef_BOOT [2:0] $end
   $var wire  3 o* fsm_enumDef_Init_Start [2:0] $end
   $var wire  3 1+ fsm_enumDef_Rd_Rsp [2:0] $end
   $var wire  3 w* fsm_enumDef_Send_Identity_Addr [2:0] $end
   $var wire  3 !+ fsm_enumDef_Send_RegData [2:0] $end
   $var wire  3 )+ fsm_enumDef_Wait_Rsp [2:0] $end
   $var wire  1 m% fsm_rdfifo_ready $end
   $var wire 16 }% fsm_rspData_0 [15:0] $end
   $var wire 16 '& fsm_rspData_1 [15:0] $end
   $var wire 16 /& fsm_rspData_2 [15:0] $end
   $var wire 16 7& fsm_rspData_3 [15:0] $end
   $var wire 16 ?& fsm_rspData_4 [15:0] $end
   $var wire 16 1' fsm_spi_cmd_payload [15:0] $end
   $var wire  1 u% fsm_spi_cmd_valid $end
   $var wire  3 3$ fsm_stateNext [2:0] $end
   $var wire 144 ;$ fsm_stateNext_string [143:0] $end
   $var wire  3 9' fsm_stateReg [2:0] $end
   $var wire 144 c fsm_stateReg_string [143:0] $end
   $var wire  1 9+ fsm_wantExit $end
   $var wire  1 9+ fsm_wantKill $end
   $var wire  1 ; fsm_wantStart $end
   $var wire  1 _* reset $end
   $var wire 16 /* rspdata_payload_RspData_0 [15:0] $end
   $var wire 16 7* rspdata_payload_RspData_1 [15:0] $end
   $var wire 16 ?* rspdata_payload_RspData_2 [15:0] $end
   $var wire 16 G* rspdata_payload_RspData_3 [15:0] $end
   $var wire 16 O* rspdata_payload_RspData_4 [15:0] $end
   $var wire  1 '* rspdata_valid $end
   $var wire  1 E) spi_miso $end
   $var wire  1 =) spi_mosi $end
   $var wire  1 5) spi_sclk $end
   $var wire  1 -) spi_ss [0:0] $end
   $var wire  1 # spictrl_cmd_ready $end
   $var wire  7 3 spictrl_occupancy [6:0] $end
   $var wire 16 =% spictrl_rsp_payload [15:0] $end
   $var wire  1 + spictrl_rsp_valid $end
   $var wire  1 5% spictrl_spi_mosi $end
   $var wire  1 -% spictrl_spi_sclk $end
   $var wire  1 w& spictrl_spi_ss [0:0] $end
   $var wire  1 C when_Endat_SPI_Ctrl_l183 $end
   $var wire  1 K when_Endat_SPI_Ctrl_l196 $end
   $var wire  1 S when_Endat_SPI_Ctrl_l204 $end
   $var wire  1 [ when_Endat_SPI_Ctrl_l208 $end
   $scope module spictrl $end
    $var wire  1 W* clk $end
    $var wire 16 1' cmd_payload [15:0] $end
    $var wire  1 # cmd_ready $end
    $var wire  1 u% cmd_valid $end
    $var wire  1 9+ config_kind_cpha $end
    $var wire  1 9+ config_kind_cpol $end
    $var wire  8 A+ config_sclkToogle [7:0] $end
    $var wire  1 9+ config_ss_activeHigh [0:0] $end
    $var wire  8 Q+ config_ss_disable [7:0] $end
    $var wire  8 I+ config_ss_hold [7:0] $end
    $var wire  8 I+ config_ss_setup [7:0] $end
    $var wire 16 _& fsm_buffer [15:0] $end
    $var wire  5 A' fsm_counter_value [4:0] $end
    $var wire  5 #$ fsm_counter_valueNext [4:0] $end
    $var wire  1 9+ fsm_counter_willClear $end
    $var wire  1 c$ fsm_counter_willIncrement $end
    $var wire  1 +$ fsm_counter_willOverflow $end
    $var wire  1 I' fsm_counter_willOverflowIfInc $end
    $var wire  3 w* fsm_enumDef_1_Active_CS [2:0] $end
    $var wire  3 g* fsm_enumDef_1_BOOT [2:0] $end
    $var wire  3 )+ fsm_enumDef_1_Disable_CS [2:0] $end
    $var wire  3 1+ fsm_enumDef_1_Dummy_State [2:0] $end
    $var wire  3 o* fsm_enumDef_1_Init_Start [2:0] $end
    $var wire  3 !+ fsm_enumDef_1_Send_Data [2:0] $end
    $var wire  1 o& fsm_rsp_valid $end
    $var wire  1 Q' fsm_ss [0:0] $end
    $var wire  3 k$ fsm_stateNext [2:0] $end
    $var wire 88 s$ fsm_stateNext_string [87:0] $end
    $var wire  3 Y' fsm_stateReg [2:0] $end
    $var wire 88 e! fsm_stateReg_string [87:0] $end
    $var wire  1 9+ fsm_wantExit $end
    $var wire  1 9+ fsm_wantKill $end
    $var wire  1 U! fsm_wantStart $end
    $var wire 16 g& fsm_wr_payload [15:0] $end
    $var wire  7 3 occupancy [6:0] $end
    $var wire  7 M! rd_fifo_io_availability [6:0] $end
    $var wire  7 3 rd_fifo_io_occupancy [6:0] $end
    $var wire 16 =% rd_fifo_io_pop_payload [15:0] $end
    $var wire  1 + rd_fifo_io_pop_valid $end
    $var wire  1 E! rd_fifo_io_push_ready $end
    $var wire  1 _* reset $end
    $var wire 16 =% rsp_payload [15:0] $end
    $var wire  1 m% rsp_ready $end
    $var wire  1 + rsp_valid $end
    $var wire  1 E) spi_miso $end
    $var wire  1 5% spi_mosi $end
    $var wire  1 -% spi_sclk $end
    $var wire  1 w& spi_ss [0:0] $end
    $var wire  8 k( timer_counter [7:0] $end
    $var wire  1 O& timer_reset $end
    $var wire  1 %) timer_sclkToogleHit $end
    $var wire  1 {( timer_ss_disableHit $end
    $var wire  1 s( timer_ss_holdHit $end
    $var wire  1 s( timer_ss_setupHit $end
    $var wire  1 ]! when_Endat_SPI_Ctrl_l53 $end
    $var wire  1 a' when_Endat_SPI_Ctrl_l76 $end
    $var wire  1 I' when_Endat_SPI_Ctrl_l79 $end
    $var wire  7 =! wr_fifo_io_availability [6:0] $end
    $var wire  7 5! wr_fifo_io_occupancy [6:0] $end
    $var wire 16 G& wr_fifo_io_pop_payload [15:0] $end
    $var wire  1 -! wr_fifo_io_pop_valid $end
    $var wire  1 # wr_fifo_io_push_ready $end
    $var wire  1 W& wr_ready $end
    $scope module rd_fifo $end
     $var wire  1 W* clk $end
     $var wire  7 M! io_availability [6:0] $end
     $var wire  1 9+ io_flush $end
     $var wire  7 3 io_occupancy [6:0] $end
     $var wire 16 =% io_pop_payload [15:0] $end
     $var wire  1 m% io_pop_ready $end
     $var wire  1 + io_pop_valid $end
     $var wire 16 _& io_push_payload [15:0] $end
     $var wire  1 E! io_push_ready $end
     $var wire  1 o& io_push_valid $end
     $var wire  1 i# logic_empty $end
     $var wire  1 q# logic_full $end
     $var wire  6 K( logic_popPtr_value [5:0] $end
     $var wire  6 A# logic_popPtr_valueNext [5:0] $end
     $var wire  1 9+ logic_popPtr_willClear $end
     $var wire  1 9# logic_popPtr_willIncrement $end
     $var wire  1 I# logic_popPtr_willOverflow $end
     $var wire  1 S( logic_popPtr_willOverflowIfInc $end
     $var wire  1 a# logic_popping $end
     $var wire  6 c( logic_ptrDif [5:0] $end
     $var wire  1 Q# logic_ptrMatch $end
     $var wire  6 ;( logic_pushPtr_value [5:0] $end
     $var wire  6 )# logic_pushPtr_valueNext [5:0] $end
     $var wire  1 9+ logic_pushPtr_willClear $end
     $var wire  1 !# logic_pushPtr_willIncrement $end
     $var wire  1 1# logic_pushPtr_willOverflow $end
     $var wire  1 C( logic_pushPtr_willOverflowIfInc $end
     $var wire  1 Y# logic_pushing $end
     $var wire  1 [( logic_risingOccupancy $end
     $var wire  1 _* reset $end
     $var wire  1 y# when_Stream_l1101 $end
    $upscope $end
    $scope module wr_fifo $end
     $var wire  1 W* clk $end
     $var wire  7 =! io_availability [6:0] $end
     $var wire  1 9+ io_flush $end
     $var wire  7 5! io_occupancy [6:0] $end
     $var wire 16 G& io_pop_payload [15:0] $end
     $var wire  1 W& io_pop_ready $end
     $var wire  1 -! io_pop_valid $end
     $var wire 16 1' io_push_payload [15:0] $end
     $var wire  1 # io_push_ready $end
     $var wire  1 u% io_push_valid $end
     $var wire  1 g" logic_empty $end
     $var wire  1 o" logic_full $end
     $var wire  6 y' logic_popPtr_value [5:0] $end
     $var wire  6 ?" logic_popPtr_valueNext [5:0] $end
     $var wire  1 9+ logic_popPtr_willClear $end
     $var wire  1 7" logic_popPtr_willIncrement $end
     $var wire  1 G" logic_popPtr_willOverflow $end
     $var wire  1 #( logic_popPtr_willOverflowIfInc $end
     $var wire  1 _" logic_popping $end
     $var wire  6 3( logic_ptrDif [5:0] $end
     $var wire  1 O" logic_ptrMatch $end
     $var wire  6 i' logic_pushPtr_value [5:0] $end
     $var wire  6 '" logic_pushPtr_valueNext [5:0] $end
     $var wire  1 9+ logic_pushPtr_willClear $end
     $var wire  1 }! logic_pushPtr_willIncrement $end
     $var wire  1 /" logic_pushPtr_willOverflow $end
     $var wire  1 q' logic_pushPtr_willOverflowIfInc $end
     $var wire  1 W" logic_pushing $end
     $var wire  1 +( logic_risingOccupancy $end
     $var wire  1 _* reset $end
     $var wire  1 w" when_Stream_l1101 $end
    $upscope $end
   $upscope $end
  $upscope $end
 $upscope $end
$enddefinitions $end


#0
1#
0+
b0000000 3
1;
1C
1K
0S
0[
b010000100100111101001111010101000010000000100000001000000010000000100000001000000010000000100000001000000010000000100000001000000010000000100000 c
0-!
b0000000 5!
b1000000 =!
1E!
b1000000 M!
1U!
0]!
b0100001001001111010011110101010000100000001000000010000000100000001000000010000000100000 e!
0}!
b000000 '"
0/"
07"
b000000 ?"
0G"
1O"
0W"
0_"
1g"
0o"
0w"
0!#
b000000 )#
01#
09#
b000000 A#
0I#
1Q#
0Y#
0a#
1i#
0q#
0y#
b00000 #$
0+$
b001 3$
b010010010110111001101001011101000101111101010011011101000110000101110010011101000010000000100000001000000010000000100000001000000010000000100000 ;$
0c$
b001 k$
b0100100101101110011010010111010001011111010100110111010001100001011100100111010000100000 s$
0-%
05%
b1100111111000000 =%
b0011000100111010 E%
b0001001110111010 M%
b0010010010100111 U%
b0000101001101000 ]%
b11 e%
0m%
0u%
b1000100111100010 }%
b1000010110100100 '&
b0101101110100001 /&
b0000110011101000 7&
b1111011010001111 ?&
b0111101111000001 G&
1O&
0W&
b1101100101011011 _&
b0000101110110110 g&
0o&
1w&
b0000000000000000 !'
b0000 )'
b0000000000000000 1'
b000 9'
b00000 A'
0I'
1Q'
b000 Y'
0a'
b000000 i'
0q'
b000000 y'
0#(
0+(
b000000 3(
b000000 ;(
0C(
b000000 K(
0S(
0[(
b000000 c(
b10000111 k(
0s(
0{(
0%)
1-)
05)
0=)
1E)
0M)
b1001010101000010 U)
b1110010000001001 ])
b1011001101110000 e)
b1111110100100001 m)
b0110010111101010 u)
b010101 })
0'*
b1000100111100010 /*
b1000010110100100 7*
b0101101110100001 ?*
b0000110011101000 G*
b1111011010001111 O*
0W*
1_*
b000 g*
b001 o*
b010 w*
b011 !+
b100 )+
b101 1+
09+
b00001010 A+
b01100100 I+
b11001000 Q+
#160
0_*
#170
0;
b010010010110111001101001011101000101111101010011011101000110000101110010011101000010000000100000001000000010000000100000001000000010000000100000 c
0U!
b0100100101101110011010010111010001011111010100110111010001100001011100100111010000100000 e!
b0101000101101010 =%
b0110010111010011 G&
0O&
b001 9'
b001 Y'
b00000000 k(
1W*
#175
0W*
#180
1m%
b00000001 k(
1W*
#185
0W*
#190
b00000010 k(
1W*
#195
0W*
#200
b00000011 k(
1W*
#205
0W*
#210
b00000100 k(
1W*
#215
0W*
#220
b00000101 k(
1W*
#225
0W*
#230
b00000110 k(
1W*
#235
0W*
#240
b00000111 k(
1W*
#245
0W*
#250
b00001000 k(
1W*
#255
0W*
#260
b00001001 k(
1W*
#265
0W*
#270
b00001010 k(
1%)
1W*
#275
0W*
#280
b00001011 k(
0%)
1W*
#285
0W*
#290
b00001100 k(
1W*
#295
0W*
#300
b00001101 k(
1W*
#305
0W*
#310
b00001110 k(
1W*
#315
0W*
#320
b00001111 k(
1W*
#325
0W*
#330
b00010000 k(
1W*
#335
0W*
#340
b00010001 k(
1W*
#345
0W*
#350
b00010010 k(
1W*
#355
0W*
#360
b00010011 k(
1W*
#365
0W*
#370
b00010100 k(
1W*
#375
0W*
#380
b00010101 k(
1W*
#385
0W*
#390
b00010110 k(
1W*
#395
0W*
#400
b00010111 k(
1W*
#405
0W*
#410
b00011000 k(
1W*
#415
0W*
#420
b00011001 k(
1W*
#425
0W*
#430
b00011010 k(
1W*
#435
0W*
#440
b00011011 k(
1W*
#445
0W*
#450
b00011100 k(
1W*
#455
0W*
#460
b00011101 k(
1W*
#465
0W*
#470
b00011110 k(
1W*
#475
0W*
#480
b00011111 k(
1W*
#485
0W*
#490
b00100000 k(
1W*
#495
0W*
#500
b00100001 k(
1W*
#505
0W*
#510
b00100010 k(
1W*
#515
0W*
#520
b00100011 k(
1W*
#525
0W*
#530
b00100100 k(
1W*
#535
0W*
#540
b00100101 k(
1W*
#545
0W*
#550
b00100110 k(
1W*
#555
0W*
#560
b00100111 k(
1W*
#565
0W*
#570
b00101000 k(
1W*
#575
0W*
#580
b00101001 k(
1W*
#585
0W*
#590
b00101010 k(
1W*
#595
0W*
#600
b00101011 k(
1W*
#605
0W*
#610
b00101100 k(
1W*
#615
0W*
#620
b00101101 k(
1W*
#625
0W*
#630
b00101110 k(
1W*
#635
0W*
#640
b00101111 k(
1W*
#645
0W*
#650
b00110000 k(
1W*
#655
0W*
#660
b00110001 k(
1W*
#665
0W*
#670
b00110010 k(
1W*
#675
0W*
#680
b00110011 k(
1W*
#685
0W*
#690
b00110100 k(
1W*
#695
0W*
#700
b00110101 k(
1W*
#705
0W*
#710
b00110110 k(
1W*
#715
0W*
#720
b00110111 k(
1W*
#725
0W*
#730
b00111000 k(
1W*
#735
0W*
#740
b00111001 k(
1W*
#745
0W*
#750
b00111010 k(
1W*
#755
0W*
#760
b00111011 k(
1W*
#765
0W*
#770
b00111100 k(
1W*
#775
0W*
#780
b00111101 k(
1W*
#785
0W*
#790
b00111110 k(
1W*
#795
0W*
#800
b00111111 k(
1W*
#805
0W*
#810
b01000000 k(
1W*
#815
0W*
#820
b01000001 k(
1W*
#825
0W*
#830
b01000010 k(
1W*
#835
0W*
#840
b01000011 k(
1W*
#845
0W*
#850
b01000100 k(
1W*
#855
0W*
#860
b01000101 k(
1W*
#865
0W*
#870
b01000110 k(
1W*
#875
0W*
#880
b01000111 k(
1W*
#885
0W*
#890
b01001000 k(
1W*
#895
0W*
#900
b01001001 k(
1W*
#905
0W*
#910
b01001010 k(
1W*
#915
0W*
#920
b01001011 k(
1W*
#925
0W*
#930
b01001100 k(
1W*
#935
0W*
#940
b01001101 k(
1W*
#945
0W*
#950
b01001110 k(
1W*
#955
0W*
#960
b01001111 k(
1W*
#965
0W*
#970
b01010000 k(
1W*
#975
0W*
#980
b01010001 k(
1W*
#985
0W*
#990
b01010010 k(
1W*
#995
0W*
#1000
b01010011 k(
1W*
#1005
0W*
#1010
b01010100 k(
1W*
#1015
0W*
#1020
b01010101 k(
1W*
#1025
0W*
#1030
b01010110 k(
1W*
#1035
0W*
#1040
b01010111 k(
1W*
#1045
0W*
#1050
b01011000 k(
1W*
#1055
0W*
#1060
b01011001 k(
1W*
#1065
0W*
#1070
b01011010 k(
1W*
#1075
0W*
#1080
b01011011 k(
1W*
#1085
0W*
#1090
b01011100 k(
1W*
#1095
0W*
#1100
b01011101 k(
1W*
#1105
0W*
#1110
b01011110 k(
1W*
#1115
0W*
#1120
b01011111 k(
1W*
#1125
0W*
#1130
b01100000 k(
1W*
#1135
0W*
#1140
b01100001 k(
1W*
#1145
0W*
#1150
b01100010 k(
1W*
#1155
0W*
#1160
b01100011 k(
1W*
#1165
0W*
#1170
b01100100 k(
1s(
1W*
#1175
0W*
#1180
b01100101 k(
0s(
1W*
#1185
0W*
#1190
b01100110 k(
1W*
#1195
0W*
#1200
b01100111 k(
1W*
#1205
0W*
#1210
b01101000 k(
1W*
#1215
0W*
#1220
b01101001 k(
1W*
#1225
0W*
#1230
b01101010 k(
1W*
#1235
0W*
#1240
b01101011 k(
1W*
#1245
0W*
#1250
b01101100 k(
1W*
#1255
0W*
#1260
b01101101 k(
1W*
#1265
0W*
#1270
b01101110 k(
1W*
#1275
0W*
#1280
b01101111 k(
1W*
#1285
0W*
#1290
b01110000 k(
1W*
#1295
0W*
#1300
b01110001 k(
1W*
#1305
0W*
#1310
b01110010 k(
1W*
#1315
0W*
#1320
b01110011 k(
1W*
#1325
0W*
#1330
b01110100 k(
1W*
#1335
0W*
#1340
b01110101 k(
1W*
#1345
0W*
#1350
b01110110 k(
1W*
#1355
0W*
#1360
b01110111 k(
1W*
#1365
0W*
#1370
b01111000 k(
1W*
#1375
0W*
#1380
b01111001 k(
1W*
#1385
0W*
#1390
b01111010 k(
1W*
#1395
0W*
#1400
b01111011 k(
1W*
#1405
0W*
#1410
b01111100 k(
1W*
#1415
0W*
#1420
b01111101 k(
1W*
#1425
0W*
#1430
b01111110 k(
1W*
#1435
0W*
#1440
b01111111 k(
1W*
#1445
0W*
#1450
b10000000 k(
1W*
#1455
0W*
#1460
b10000001 k(
1W*
#1465
0W*
#1470
b10000010 k(
1W*
#1475
0W*
#1480
b10000011 k(
1W*
#1485
0W*
#1490
b10000100 k(
1W*
#1495
0W*
#1500
b10000101 k(
1W*
#1505
0W*
#1510
b10000110 k(
1W*
#1515
0W*
#1520
b10000111 k(
1W*
#1525
0W*
#1530
b10001000 k(
1W*
#1535
0W*
#1540
b10001001 k(
1W*
#1545
0W*
#1550
b10001010 k(
1W*
#1555
0W*
#1560
b10001011 k(
1W*
#1565
0W*
#1570
b10001100 k(
1W*
#1575
0W*
#1580
b10001101 k(
1W*
#1585
0W*
#1590
b10001110 k(
1W*
#1595
0W*
#1600
b10001111 k(
1W*
#1605
0W*
#1610
b10010000 k(
1W*
#1615
0W*
#1620
b10010001 k(
1W*
#1625
0W*
#1630
b10010010 k(
1W*
#1635
0W*
#1640
b10010011 k(
1W*
#1645
0W*
#1650
b10010100 k(
1W*
#1655
0W*
#1660
b10010101 k(
1W*
#1665
0W*
#1670
b10010110 k(
1W*
#1675
0W*
#1680
b10010111 k(
1W*
#1685
0W*
#1690
b10011000 k(
1W*
#1695
0W*
#1700
b10011001 k(
1W*
#1705
0W*
#1710
b10011010 k(
1W*
#1715
0W*
#1720
b10011011 k(
1W*
#1725
0W*
#1730
b10011100 k(
1W*
#1735
0W*
#1740
b10011101 k(
1W*
#1745
0W*
#1750
b10011110 k(
1W*
#1755
0W*
#1760
b10011111 k(
1W*
#1765
0W*
#1770
b10100000 k(
1W*
#1775
0W*
#1780
b10100001 k(
1W*
#1785
0W*
#1790
b10100010 k(
1W*
#1795
0W*
#1800
b10100011 k(
1W*
#1805
0W*
#1810
b10100100 k(
1W*
#1815
0W*
#1820
b10100101 k(
1W*
#1825
0W*
#1830
b10100110 k(
1W*
#1835
0W*
#1840
b10100111 k(
1W*
#1845
0W*
#1850
b10101000 k(
1W*
#1855
0W*
#1860
b10101001 k(
1W*
#1865
0W*
#1870
b10101010 k(
1W*
#1875
0W*
#1880
b10101011 k(
1W*
#1885
0W*
#1890
b10101100 k(
1W*
#1895
0W*
#1900
b10101101 k(
1W*
#1905
0W*
#1910
b10101110 k(
1W*
#1915
0W*
#1920
b10101111 k(
1W*
#1925
0W*
#1930
b10110000 k(
1W*
#1935
0W*
#1940
b10110001 k(
1W*
#1945
0W*
#1950
b10110010 k(
1W*
#1955
0W*
#1960
b10110011 k(
1W*
#1965
0W*
#1970
b10110100 k(
1W*
#1975
0W*
#1980
b10110101 k(
1W*
#1985
0W*
#1990
b10110110 k(
1W*
#1995
0W*
#2000
b10110111 k(
1W*
#2005
0W*
#2010
b10111000 k(
1W*
#2015
0W*
#2020
b10111001 k(
1W*
#2025
0W*
#2030
b10111010 k(
1W*
#2035
0W*
#2040
b10111011 k(
1W*
#2045
0W*
#2050
b10111100 k(
1W*
#2055
0W*
#2060
b10111101 k(
1W*
#2065
0W*
#2070
b10111110 k(
1W*
#2075
0W*
#2080
b10111111 k(
1W*
#2085
0W*
#2090
b11000000 k(
1W*
#2095
0W*
#2100
b11000001 k(
1W*
#2105
0W*
#2110
b11000010 k(
1W*
#2115
0W*
#2120
b11000011 k(
1W*
#2125
0W*
#2130
b11000100 k(
1W*
#2135
0W*
#2140
b11000101 k(
1W*
#2145
0W*
#2150
b11000110 k(
1W*
#2155
0W*
#2160
b11000111 k(
1W*
#2165
0W*
#2170
b11001000 k(
1{(
1W*
#2175
0W*
#2180
b11001001 k(
0{(
1W*
#2185
0W*
#2190
b11001010 k(
1W*
#2195
0W*
#2200
b11001011 k(
1W*
#2205
0W*
#2210
b11001100 k(
1W*
#2215
0W*
#2220
b11001101 k(
1W*
#2225
0W*
#2230
b11001110 k(
1W*
#2235
0W*
#2240
b11001111 k(
1W*
#2245
0W*
#2250
b11010000 k(
1W*
#2255
0W*
#2260
b11010001 k(
1W*
#2265
0W*
#2270
b11010010 k(
1W*
#2275
0W*
#2280
b11010011 k(
1W*
#2285
0W*
#2290
b11010100 k(
1W*
#2295
0W*
#2300
b11010101 k(
1W*
#2305
0W*
#2310
b11010110 k(
1W*
#2315
0W*
#2320
b11010111 k(
1W*
#2325
0W*
#2330
b11011000 k(
1W*
#2335
0W*
#2340
b11011001 k(
1W*
#2345
0W*
#2350
b11011010 k(
1W*
#2355
0W*
#2360
b11011011 k(
1W*
#2365
0W*
#2370
b11011100 k(
1W*
#2375
0W*
#2380
b11011101 k(
1W*
#2385
0W*
#2390
b11011110 k(
1W*
#2395
0W*
#2400
b11011111 k(
1W*
#2405
0W*
#2410
b11100000 k(
1W*
#2415
0W*
#2420
b11100001 k(
1W*
#2425
0W*
#2430
b11100010 k(
1W*
#2435
0W*
#2440
b11100011 k(
1W*
#2445
0W*
#2450
b11100100 k(
1W*
#2455
0W*
#2460
b11100101 k(
1W*
#2465
0W*
#2470
b11100110 k(
1W*
#2475
0W*
#2480
b11100111 k(
1W*
#2485
0W*
#2490
b11101000 k(
1W*
#2495
0W*
#2500
b11101001 k(
1W*
#2505
0W*
#2510
b11101010 k(
1W*
#2515
0W*
#2520
b11101011 k(
1W*
#2525
0W*
#2530
b11101100 k(
1W*
#2535
0W*
#2540
b11101101 k(
1W*
#2545
0W*
#2550
b11101110 k(
1W*
#2555
0W*
#2560
b11101111 k(
1W*
#2565
0W*
#2570
b11110000 k(
1W*
#2575
0W*
#2580
b11110001 k(
1W*
#2585
0W*
#2590
b11110010 k(
1W*
#2595
0W*
#2600
b11110011 k(
1W*
#2605
0W*
#2610
b11110100 k(
1W*
#2615
0W*
#2620
b11110101 k(
1W*
#2625
0W*
#2630
b11110110 k(
1W*
#2635
0W*
#2640
b11110111 k(
1W*
#2645
0W*
#2650
b11111000 k(
1W*
#2655
0W*
#2660
b11111001 k(
1W*
#2665
0W*
#2670
b11111010 k(
1W*
#2675
0W*
#2680
b11111011 k(
1W*
#2685
0W*
#2690
b11111100 k(
1W*
#2695
0W*
#2700
b11111101 k(
1W*
#2705
0W*
#2710
b11111110 k(
1W*
#2715
0W*
#2720
b11111111 k(
1W*
#2725
0W*
#2730
b00000000 k(
1W*
#2735
0W*
#2740
b00000001 k(
1W*
#2745
0W*
#2750
b00000010 k(
1W*
#2755
0W*
#2760
b00000011 k(
1W*
#2765
0W*
#2770
b00000100 k(
1W*
#2775
0W*
#2780
b00000101 k(
1W*
#2785
0W*
#2790
b00000110 k(
1W*
#2795
0W*
#2800
b00000111 k(
1W*
#2805
0W*
#2810
b00001000 k(
1W*
#2815
0W*
#2820
b00001001 k(
1W*
#2825
0W*
#2830
b00001010 k(
1%)
1W*
#2835
0W*
#2840
b00001011 k(
0%)
1W*
#2845
0W*
#2850
b00001100 k(
1W*
#2855
0W*
#2860
b00001101 k(
1W*
#2865
0W*
#2870
b00001110 k(
1W*
#2875
0W*
#2880
b00001111 k(
1W*
#2885
0W*
#2890
b00010000 k(
1W*
#2895
0W*
#2900
b00010001 k(
1W*
#2905
0W*
#2910
b00010010 k(
1W*
#2915
0W*
#2920
b00010011 k(
1W*
#2925
0W*
#2930
b00010100 k(
1W*
#2935
0W*
#2940
b00010101 k(
1W*
#2945
0W*
#2950
b00010110 k(
1W*
#2955
0W*
#2960
b00010111 k(
1W*
#2965
0W*
#2970
b00011000 k(
1W*
#2975
0W*
#2980
b00011001 k(
1W*
#2985
0W*
#2990
b00011010 k(
1W*
#2995
0W*
#3000
b00011011 k(
1W*
#3005
0W*
#3010
b00011100 k(
1W*
#3015
0W*
#3020
b00011101 k(
1W*
#3025
0W*
#3030
b00011110 k(
1W*
#3035
0W*
#3040
b00011111 k(
1W*
#3045
0W*
#3050
b00100000 k(
1W*
#3055
0W*
#3060
b00100001 k(
1W*
#3065
0W*
#3070
b00100010 k(
1W*
#3075
0W*
#3080
b00100011 k(
1W*
#3085
0W*
#3090
b00100100 k(
1W*
#3095
0W*
#3100
b00100101 k(
1W*
#3105
0W*
#3110
b00100110 k(
1W*
#3115
0W*
#3120
b00100111 k(
1W*
#3125
0W*
#3130
b00101000 k(
1W*
#3135
0W*
#3140
b00101001 k(
1W*
#3145
0W*
#3150
b00101010 k(
1W*
#3155
0W*
#3160
b00101011 k(
1W*
#3165
0W*
#3170
b00101100 k(
1W*
#3175
0W*
#3180
b00101101 k(
1W*
#3185
0W*
#3190
b00101110 k(
1W*
#3195
0W*
#3200
b00101111 k(
1W*
#3205
0W*
#3210
b00110000 k(
1W*
#3215
0W*
#3220
b00110001 k(
1W*
#3225
0W*
#3230
b00110010 k(
1W*
#3235
0W*
#3240
b00110011 k(
1W*
#3245
0W*
#3250
b00110100 k(
1W*
#3255
0W*
#3260
b00110101 k(
1W*
#3265
0W*
#3270
b00110110 k(
1W*
#3275
0W*
#3280
b00110111 k(
1W*
#3285
0W*
#3290
b00111000 k(
1W*
#3295
0W*
#3300
b00111001 k(
1W*
#3305
0W*
#3310
b00111010 k(
1W*
#3315
0W*
#3320
b00111011 k(
1W*
#3325
0W*
#3330
b00111100 k(
1W*
#3335
0W*
#3340
b00111101 k(
1W*
#3345
0W*
#3350
b00111110 k(
1W*
#3355
0W*
#3360
b00111111 k(
1W*
#3365
0W*
#3370
b01000000 k(
1W*
#3375
0W*
#3380
b01000001 k(
1W*
#3385
0W*
#3390
b01000010 k(
1W*
#3395
0W*
#3400
b01000011 k(
1W*
#3405
0W*
#3410
b01000100 k(
1W*
#3415
0W*
#3420
b01000101 k(
1W*
#3425
0W*
#3430
b01000110 k(
1W*
#3435
0W*
#3440
b01000111 k(
1W*
#3445
0W*
#3450
b01001000 k(
1W*
#3455
0W*
#3460
b01001001 k(
1W*
#3465
0W*
#3470
b01001010 k(
1W*
#3475
0W*
#3480
b01001011 k(
1W*
#3485
0W*
#3490
b01001100 k(
1W*
#3495
0W*
#3500
b01001101 k(
1W*
#3505
0W*
#3510
b01001110 k(
1W*
#3515
0W*
#3520
b01001111 k(
1W*
#3525
0W*
#3530
b01010000 k(
1W*
#3535
0W*
#3540
b01010001 k(
1W*
#3545
0W*
#3550
b01010010 k(
1W*
#3555
0W*
#3560
b01010011 k(
1W*
#3565
0W*
#3570
b01010100 k(
1W*
#3575
0W*
#3580
b01010101 k(
1W*
#3585
0W*
#3590
b01010110 k(
1W*
#3595
0W*
#3600
b01010111 k(
1W*
#3605
0W*
#3610
b01011000 k(
1W*
#3615
0W*
#3620
b01011001 k(
1W*
#3625
0W*
#3630
b01011010 k(
1W*
#3635
0W*
#3640
b01011011 k(
1W*
#3645
0W*
#3650
b01011100 k(
1W*
#3655
0W*
#3660
b01011101 k(
1W*
#3665
0W*
#3670
b01011110 k(
1W*
#3675
0W*
#3680
b01011111 k(
1W*
#3685
0W*
#3690
b01100000 k(
1W*
#3695
0W*
#3700
b01100001 k(
1W*
#3705
0W*
#3710
b01100010 k(
1W*
#3715
0W*
#3720
b01100011 k(
1W*
#3725
0W*
#3730
b01100100 k(
1s(
1W*
#3735
0W*
#3740
b01100101 k(
0s(
1W*
#3745
0W*
#3750
b01100110 k(
1W*
#3755
0W*
#3760
b01100111 k(
1W*
#3765
0W*
#3770
b01101000 k(
1W*
#3775
0W*
