simWorkspace/SPI_Ctrl/test.vcd
$version Generated by VerilatedVcd $end
$date Thu Mar 09 17:15:33 2023
 $end
$timescale   1ns $end

 $scope module TOP $end
  $var wire  1 a' clk $end
  $var wire 16 A' cmd_payload [15:0] $end
  $var wire  1 9' cmd_ready $end
  $var wire  1 1' cmd_valid $end
  $var wire  1 _& config_kind_cpha $end
  $var wire  1 W& config_kind_cpol $end
  $var wire  8 g& config_sclkToogle [7:0] $end
  $var wire  1 o& config_ss_activeHigh [0:0] $end
  $var wire  8 )' config_ss_disable [7:0] $end
  $var wire  8 !' config_ss_hold [7:0] $end
  $var wire  8 w& config_ss_setup [7:0] $end
  $var wire  1 i' reset $end
  $var wire 16 Y' rsp_payload [15:0] $end
  $var wire  1 Q' rsp_ready $end
  $var wire  1 I' rsp_valid $end
  $var wire  1 O& spi_miso $end
  $var wire  1 G& spi_mosi $end
  $var wire  1 ?& spi_sclk $end
  $var wire  1 7& spi_ss [0:0] $end
  $scope module SPI_Ctrl $end
   $var wire  1 a' clk $end
   $var wire 16 A' cmd_payload [15:0] $end
   $var wire  1 9' cmd_ready $end
   $var wire  1 1' cmd_valid $end
   $var wire  1 _& config_kind_cpha $end
   $var wire  1 W& config_kind_cpol $end
   $var wire  8 g& config_sclkToogle [7:0] $end
   $var wire  1 o& config_ss_activeHigh [0:0] $end
   $var wire  8 )' config_ss_disable [7:0] $end
   $var wire  8 !' config_ss_hold [7:0] $end
   $var wire  8 w& config_ss_setup [7:0] $end
   $var wire 16 S$ fsm_buffer [15:0] $end
   $var wire  5 k$ fsm_counter_value [4:0] $end
   $var wire  5 ?" fsm_counter_valueNext [4:0] $end
   $var wire  1 C( fsm_counter_willClear $end
   $var wire  1 1# fsm_counter_willIncrement $end
   $var wire  1 G" fsm_counter_willOverflow $end
   $var wire  1 s$ fsm_counter_willOverflowIfInc $end
   $var wire  3 #( fsm_enumDef_Active_CS [2:0] $end
   $var wire  3 q' fsm_enumDef_BOOT [2:0] $end
   $var wire  3 3( fsm_enumDef_Disable_CS [2:0] $end
   $var wire  3 ;( fsm_enumDef_Dummy_State [2:0] $end
   $var wire  3 y' fsm_enumDef_Init_Start [2:0] $end
   $var wire  3 +( fsm_enumDef_Send_Data [2:0] $end
   $var wire  1 c$ fsm_rsp_valid $end
   $var wire  1 {$ fsm_ss [0:0] $end
   $var wire  3 9# fsm_stateNext [2:0] $end
   $var wire 88 A# fsm_stateNext_string [87:0] $end
   $var wire  3 %% fsm_stateReg [2:0] $end
   $var wire 88 s fsm_stateReg_string [87:0] $end
   $var wire  1 C( fsm_wantExit $end
   $var wire  1 C( fsm_wantKill $end
   $var wire  1 c fsm_wantStart $end
   $var wire 16 [$ fsm_wr_payload [15:0] $end
   $var wire  7 [ rd_fifo_io_availability [6:0] $end
   $var wire  7 S rd_fifo_io_occupancy [6:0] $end
   $var wire 16 3$ rd_fifo_io_pop_payload [15:0] $end
   $var wire  1 K rd_fifo_io_pop_valid $end
   $var wire  1 C rd_fifo_io_push_ready $end
   $var wire  1 i' reset $end
   $var wire 16 Y' rsp_payload [15:0] $end
   $var wire  1 Q' rsp_ready $end
   $var wire  1 I' rsp_valid $end
   $var wire  1 O& spi_miso $end
   $var wire  1 G& spi_mosi $end
   $var wire  1 ?& spi_sclk $end
   $var wire  1 7& spi_ss [0:0] $end
   $var wire  8 ;$ timer_counter [7:0] $end
   $var wire  1 C$ timer_reset $end
   $var wire  1 )# timer_sclkToogleHit $end
   $var wire  1 !# timer_ss_disableHit $end
   $var wire  1 w" timer_ss_holdHit $end
   $var wire  1 o" timer_ss_setupHit $end
   $var wire  1 k when_Endat_SPI_Ctrl_l52 $end
   $var wire  1 -% when_Endat_SPI_Ctrl_l75 $end
   $var wire  1 s$ when_Endat_SPI_Ctrl_l78 $end
   $var wire  7 ; wr_fifo_io_availability [6:0] $end
   $var wire  7 3 wr_fifo_io_occupancy [6:0] $end
   $var wire 16 +$ wr_fifo_io_pop_payload [15:0] $end
   $var wire  1 + wr_fifo_io_pop_valid $end
   $var wire  1 # wr_fifo_io_push_ready $end
   $var wire  1 K$ wr_ready $end
   $scope module rd_fifo $end
    $var wire  1 a' clk $end
    $var wire  7 [ io_availability [6:0] $end
    $var wire  1 C( io_flush $end
    $var wire  7 S io_occupancy [6:0] $end
    $var wire 16 3$ io_pop_payload [15:0] $end
    $var wire  1 Q' io_pop_ready $end
    $var wire  1 K io_pop_valid $end
    $var wire 16 S$ io_push_payload [15:0] $end
    $var wire  1 C io_push_ready $end
    $var wire  1 c$ io_push_valid $end
    $var wire  1 /" logic_empty $end
    $var wire  1 7" logic_full $end
    $var wire  6 u% logic_popPtr_value [5:0] $end
    $var wire  6 y# logic_popPtr_valueNext [5:0] $end
    $var wire  1 C( logic_popPtr_willClear $end
    $var wire  1 q# logic_popPtr_willIncrement $end
    $var wire  1 _" logic_popPtr_willOverflow $end
    $var wire  1 }% logic_popPtr_willOverflowIfInc $end
    $var wire  1 #$ logic_popping $end
    $var wire  6 /& logic_ptrDif [5:0] $end
    $var wire  1 }! logic_ptrMatch $end
    $var wire  6 e% logic_pushPtr_value [5:0] $end
    $var wire  6 m! logic_pushPtr_valueNext [5:0] $end
    $var wire  1 C( logic_pushPtr_willClear $end
    $var wire  1 e! logic_pushPtr_willIncrement $end
    $var wire  1 u! logic_pushPtr_willOverflow $end
    $var wire  1 m% logic_pushPtr_willOverflowIfInc $end
    $var wire  1 '" logic_pushing $end
    $var wire  1 '& logic_risingOccupancy $end
    $var wire  1 i' reset $end
    $var wire  1 g" when_Stream_l1101 $end
   $upscope $end
   $scope module wr_fifo $end
    $var wire  1 a' clk $end
    $var wire  7 ; io_availability [6:0] $end
    $var wire  1 C( io_flush $end
    $var wire  7 3 io_occupancy [6:0] $end
    $var wire 16 +$ io_pop_payload [15:0] $end
    $var wire  1 K$ io_pop_ready $end
    $var wire  1 + io_pop_valid $end
    $var wire 16 A' io_push_payload [15:0] $end
    $var wire  1 # io_push_ready $end
    $var wire  1 1' io_push_valid $end
    $var wire  1 U! logic_empty $end
    $var wire  1 ]! logic_full $end
    $var wire  6 E% logic_popPtr_value [5:0] $end
    $var wire  6 5! logic_popPtr_valueNext [5:0] $end
    $var wire  1 C( logic_popPtr_willClear $end
    $var wire  1 -! logic_popPtr_willIncrement $end
    $var wire  1 =! logic_popPtr_willOverflow $end
    $var wire  1 M% logic_popPtr_willOverflowIfInc $end
    $var wire  1 M! logic_popping $end
    $var wire  6 ]% logic_ptrDif [5:0] $end
    $var wire  1 E! logic_ptrMatch $end
    $var wire  6 5% logic_pushPtr_value [5:0] $end
    $var wire  6 a# logic_pushPtr_valueNext [5:0] $end
    $var wire  1 C( logic_pushPtr_willClear $end
    $var wire  1 Y# logic_pushPtr_willIncrement $end
    $var wire  1 O" logic_pushPtr_willOverflow $end
    $var wire  1 =% logic_pushPtr_willOverflowIfInc $end
    $var wire  1 i# logic_pushing $end
    $var wire  1 U% logic_risingOccupancy $end
    $var wire  1 i' reset $end
    $var wire  1 W" when_Stream_l1101 $end
   $upscope $end
  $upscope $end
 $upscope $end
$enddefinitions $end


#0
1#
0+
b0000000 3
b1000000 ;
1C
0K
b0000000 S
b1000000 [
1c
0k
b0100001001001111010011110101010000100000001000000010000000100000001000000010000000100000 s
0-!
b000000 5!
0=!
1E!
0M!
1U!
0]!
1e!
b000001 m!
0u!
1}!
1'"
1/"
07"
b00000 ?"
0G"
0O"
0W"
0_"
1g"
0o"
0w"
0!#
0)#
01#
b001 9#
b0100100101101110011010010111010001011111010100110111010001100001011100100111010000100000 A#
0Y#
b000000 a#
0i#
0q#
b000000 y#
0#$
b1101000011110011 +$
b1000000011001111 3$
b00011000 ;$
1C$
0K$
b1010000011110111 S$
b1000101001100100 [$
1c$
b00000 k$
0s$
1{$
b000 %%
0-%
b000000 5%
0=%
b000000 E%
0M%
0U%
b000000 ]%
b000000 e%
0m%
b000000 u%
0}%
0'&
b000000 /&
17&
0?&
0G&
1O&
0W&
1_&
b01100100 g&
0o&
b01100100 w&
b01100100 !'
b11001000 )'
01'
19'
b0110100010100111 A'
0I'
0Q'
b1000000011001111 Y'
0a'
1i'
b000 q'
b001 y'
b010 #(
b011 +(
b100 3(
b101 ;(
0C(
#160
0i'
#170
b0000001 S
b0111111 [
0c
b0100100101101110011010010111010001011111010100110111010001100001011100100111010000100000 s
0e!
0}!
0'"
0/"
0g"
b1100011011000011 +$
b0010001110011100 3$
b00000000 ;$
0C$
0c$
b001 %%
b000001 e%
1'&
b000001 /&
1?&
1G&
b0010001110011100 Y'
1a'
#175
0a'
#180
1K
b1010000011110111 3$
b00000001 ;$
1I'
b1010000011110111 Y'
1a'
#185
0a'
#190
b00000010 ;$
1a'
#195
0a'
#200
b00000011 ;$
1a'
#205
0a'
#210
b00000100 ;$
1a'
#215
0a'
#220
b00000101 ;$
1a'
#225
0a'
#230
b00000110 ;$
1a'
#235
0a'
#240
b00000111 ;$
1a'
#245
0a'
#250
b00001000 ;$
1a'
#255
0a'
#260
b00001001 ;$
1a'
#265
0a'
#270
b00001010 ;$
1a'
#275
0a'
#280
b00001011 ;$
1a'
#285
0a'
#290
b00001100 ;$
1a'
#295
0a'
#300
b00001101 ;$
1a'
#305
0a'
#310
b00001110 ;$
1a'
#315
0a'
#320
b00001111 ;$
1a'
#325
0a'
#330
b00010000 ;$
1a'
#335
0a'
#340
b00010001 ;$
1a'
#345
0a'
#350
b00010010 ;$
1a'
#355
0a'
#360
b00010011 ;$
1a'
#365
0a'
#370
b00010100 ;$
1a'
#375
0a'
#380
b00010101 ;$
1a'
#385
0a'
#390
b00010110 ;$
1a'
#395
0a'
#400
b00010111 ;$
1a'
#405
0a'
#410
b00011000 ;$
1a'
#415
0a'
#420
b00011001 ;$
1a'
#425
0a'
#430
b00011010 ;$
1a'
#435
0a'
#440
b00011011 ;$
1a'
#445
0a'
#450
b00011100 ;$
1a'
#455
0a'
#460
b00011101 ;$
1a'
#465
0a'
#470
b00011110 ;$
1a'
#475
0a'
#480
b00011111 ;$
1a'
#485
0a'
#490
b00100000 ;$
1a'
#495
0a'
#500
b00100001 ;$
1a'
#505
0a'
#510
b00100010 ;$
1a'
#515
0a'
#520
b00100011 ;$
1a'
#525
0a'
#530
b00100100 ;$
1a'
#535
0a'
#540
b00100101 ;$
1a'
#545
0a'
#550
b00100110 ;$
1a'
#555
0a'
#560
b00100111 ;$
1a'
#565
0a'
#570
b00101000 ;$
1a'
#575
0a'
#580
b00101001 ;$
1a'
#585
0a'
#590
b00101010 ;$
1a'
#595
0a'
#600
b00101011 ;$
1a'
#605
0a'
#610
b00101100 ;$
1a'
#615
0a'
#620
b00101101 ;$
1a'
#625
0a'
#630
b00101110 ;$
1a'
#635
0a'
#640
b00101111 ;$
1a'
#645
0a'
#650
b00110000 ;$
1a'
#655
0a'
#660
1W"
1Y#
b000001 a#
1i#
b00110001 ;$
11'
b0001001000110100 A'
1a'
#665
0a'
#670
b0000001 3
b0111111 ;
1k
0E!
0U!
b010 9#
b0100000101100011011101000110100101110110011001010101111101000011010100110010000000100000 A#
b000010 a#
b00110010 ;$
b000001 5%
1U%
b000001 ]%
b0101011001111000 A'
1a'
#675
0a'
#680
1+
b0000010 3
b0111110 ;
b0100000101100011011101000110100101110110011001010101111101000011010100110010000000100000 s
0W"
0Y#
0i#
b0001001000110100 +$
b00110011 ;$
1C$
0{$
b010 %%
b000010 5%
b000010 ]%
07&
01'
1a'
#685
0a'
#690
b00000000 ;$
0C$
1a'
#695
0a'
#700
b00000001 ;$
1a'
#705
0a'
#710
b00000010 ;$
1a'
#715
0a'
#720
b00000011 ;$
1a'
#725
0a'
#730
b00000100 ;$
1a'
#735
0a'
#740
b00000101 ;$
1a'
#745
0a'
#750
b00000110 ;$
1a'
#755
0a'
#760
b00000111 ;$
1a'
#765
0a'
#770
b00001000 ;$
1a'
#775
0a'
#780
b00001001 ;$
1a'
#785
0a'
#790
b00001010 ;$
1a'
#795
0a'
#800
b00001011 ;$
1a'
#805
0a'
#810
b00001100 ;$
1a'
#815
0a'
#820
b00001101 ;$
1a'
#825
0a'
#830
b00001110 ;$
1a'
#835
0a'
#840
b00001111 ;$
1a'
#845
0a'
#850
b00010000 ;$
1a'
#855
0a'
#860
b00010001 ;$
1a'
#865
0a'
#870
b00010010 ;$
1a'
#875
0a'
#880
b00010011 ;$
1a'
#885
0a'
#890
b00010100 ;$
1a'
#895
0a'
#900
b00010101 ;$
1a'
#905
0a'
#910
b00010110 ;$
1a'
#915
0a'
#920
b00010111 ;$
1a'
#925
0a'
#930
b00011000 ;$
1a'
#935
0a'
#940
b00011001 ;$
1a'
#945
0a'
#950
b00011010 ;$
1a'
#955
0a'
#960
b00011011 ;$
1a'
#965
0a'
#970
b00011100 ;$
1a'
#975
0a'
#980
b00011101 ;$
1a'
#985
0a'
#990
b00011110 ;$
1a'
#995
0a'
#1000
b00011111 ;$
1a'
#1005
0a'
#1010
b00100000 ;$
1a'
#1015
0a'
#1020
b00100001 ;$
1a'
#1025
0a'
#1030
b00100010 ;$
1a'
#1035
0a'
#1040
b00100011 ;$
1a'
#1045
0a'
#1050
b00100100 ;$
1a'
#1055
0a'
#1060
b00100101 ;$
1a'
#1065
0a'
#1070
b00100110 ;$
1a'
#1075
0a'
#1080
b00100111 ;$
1a'
#1085
0a'
#1090
b00101000 ;$
1a'
#1095
0a'
#1100
b00101001 ;$
1a'
#1105
0a'
#1110
b00101010 ;$
1a'
#1115
0a'
#1120
b00101011 ;$
1a'
#1125
0a'
#1130
b00101100 ;$
1a'
#1135
0a'
#1140
b00101101 ;$
1a'
#1145
0a'
#1150
b00101110 ;$
1a'
#1155
0a'
#1160
b00101111 ;$
1a'
#1165
0a'
#1170
b00110000 ;$
1a'
#1175
0a'
#1180
b00110001 ;$
1a'
#1185
0a'
#1190
b00110010 ;$
1a'
#1195
0a'
#1200
b00110011 ;$
1a'
#1205
0a'
#1210
b00110100 ;$
1a'
#1215
0a'
#1220
b00110101 ;$
1a'
#1225
0a'
#1230
b00110110 ;$
1a'
#1235
0a'
#1240
b00110111 ;$
1a'
#1245
0a'
#1250
b00111000 ;$
1a'
#1255
0a'
#1260
b00111001 ;$
1a'
#1265
0a'
#1270
b00111010 ;$
1a'
#1275
0a'
#1280
b00111011 ;$
1a'
#1285
0a'
#1290
b00111100 ;$
1a'
#1295
0a'
#1300
b00111101 ;$
1a'
#1305
0a'
#1310
b00111110 ;$
1a'
#1315
0a'
#1320
b00111111 ;$
1a'
#1325
0a'
#1330
b01000000 ;$
1a'
#1335
0a'
#1340
b01000001 ;$
1a'
#1345
0a'
#1350
b01000010 ;$
1a'
#1355
0a'
#1360
b01000011 ;$
1a'
#1365
0a'
#1370
b01000100 ;$
1a'
#1375
0a'
#1380
b01000101 ;$
1a'
#1385
0a'
#1390
b01000110 ;$
1a'
#1395
0a'
#1400
b01000111 ;$
1a'
#1405
0a'
#1410
b01001000 ;$
1a'
#1415
0a'
#1420
b01001001 ;$
1a'
#1425
0a'
#1430
b01001010 ;$
1a'
#1435
0a'
#1440
b01001011 ;$
1a'
#1445
0a'
#1450
b01001100 ;$
1a'
#1455
0a'
#1460
b01001101 ;$
1a'
#1465
0a'
#1470
b01001110 ;$
1a'
#1475
0a'
#1480
b01001111 ;$
1a'
#1485
0a'
#1490
b01010000 ;$
1a'
#1495
0a'
#1500
b01010001 ;$
1a'
#1505
0a'
#1510
b01010010 ;$
1a'
#1515
0a'
#1520
b01010011 ;$
1a'
#1525
0a'
#1530
b01010100 ;$
1a'
#1535
0a'
#1540
b01010101 ;$
1a'
#1545
0a'
#1550
b01010110 ;$
1a'
#1555
0a'
#1560
b01010111 ;$
1a'
#1565
0a'
#1570
b01011000 ;$
1a'
#1575
0a'
#1580
b01011001 ;$
1a'
#1585
0a'
#1590
b01011010 ;$
1a'
#1595
0a'
#1600
b01011011 ;$
1a'
#1605
0a'
#1610
b01011100 ;$
1a'
#1615
0a'
#1620
b01011101 ;$
1a'
#1625
0a'
#1630
b01011110 ;$
1a'
#1635
0a'
#1640
b01011111 ;$
1a'
#1645
0a'
#1650
b01100000 ;$
1a'
#1655
0a'
#1660
b01100001 ;$
1a'
#1665
0a'
#1670
b01100010 ;$
1a'
#1675
0a'
#1680
b01100011 ;$
1a'
#1685
0a'
#1690
1o"
1w"
1)#
b011 9#
b0101001101100101011011100110010001011111010001000110000101110100011000010010000000100000 A#
b01100100 ;$
1a'
#1695
0a'
#1700
b0101001101100101011011100110010001011111010001000110000101110100011000010010000000100000 s
1-!
b000001 5!
1M!
1W"
0o"
0w"
0)#
b01100101 ;$
1C$
1K$
b0001001000110100 [$
b011 %%
1a'
#1705
0a'
#1710
b0000001 3
b0111111 ;
0-!
0M!
0W"
b0101011001111000 +$
b00000000 ;$
0C$
0K$
b000001 E%
0U%
b000001 ]%
0G&
1a'
#1715
0a'
#1720
b00000001 ;$
0O&
1a'
#1725
0a'
#1730
b00000010 ;$
1a'
#1735
0a'
#1740
b00000011 ;$
1a'
#1745
0a'
#1750
b00000100 ;$
1a'
#1755
0a'
#1760
b00000101 ;$
1a'
#1765
0a'
#1770
b00000110 ;$
1a'
#1775
0a'
#1780
b00000111 ;$
1a'
#1785
0a'
#1790
b00001000 ;$
1a'
#1795
0a'
#1800
b00001001 ;$
1a'
#1805
0a'
#1810
b00001010 ;$
1a'
#1815
0a'
#1820
b00001011 ;$
1a'
#1825
0a'
#1830
b00001100 ;$
1a'
#1835
0a'
#1840
b00001101 ;$
1a'
#1845
0a'
#1850
b00001110 ;$
1a'
#1855
0a'
#1860
b00001111 ;$
1a'
#1865
0a'
#1870
b00010000 ;$
1a'
#1875
0a'
#1880
b00010001 ;$
1a'
#1885
0a'
#1890
b00010010 ;$
1a'
#1895
0a'
#1900
b00010011 ;$
1a'
#1905
0a'
#1910
b00010100 ;$
1a'
#1915
0a'
#1920
b00010101 ;$
1a'
#1925
0a'
#1930
b00010110 ;$
1a'
#1935
0a'
#1940
b00010111 ;$
1a'
#1945
0a'
#1950
b00011000 ;$
1a'
#1955
0a'
#1960
b00011001 ;$
1a'
#1965
0a'
#1970
b00011010 ;$
1a'
#1975
0a'
#1980
b00011011 ;$
1a'
#1985
0a'
#1990
b00011100 ;$
1a'
#1995
0a'
#2000
b00011101 ;$
1a'
#2005
0a'
#2010
b00011110 ;$
1a'
#2015
0a'
#2020
b00011111 ;$
1a'
#2025
0a'
#2030
b00100000 ;$
1a'
#2035
0a'
#2040
b00100001 ;$
1a'
#2045
0a'
#2050
b00100010 ;$
1a'
#2055
0a'
#2060
b00100011 ;$
1a'
#2065
0a'
#2070
b00100100 ;$
1a'
#2075
0a'
#2080
b00100101 ;$
1a'
#2085
0a'
#2090
b00100110 ;$
1a'
#2095
0a'
#2100
b00100111 ;$
1a'
#2105
0a'
#2110
b00101000 ;$
1a'
#2115
0a'
#2120
b00101001 ;$
1a'
#2125
0a'
#2130
b00101010 ;$
1a'
#2135
0a'
#2140
b00101011 ;$
1a'
#2145
0a'
#2150
b00101100 ;$
1a'
#2155
0a'
#2160
b00101101 ;$
1a'
#2165
0a'
#2170
b00101110 ;$
1a'
#2175
0a'
#2180
b00101111 ;$
1a'
#2185
0a'
#2190
b00110000 ;$
1a'
#2195
0a'
#2200
b00110001 ;$
1a'
#2205
0a'
#2210
b00110010 ;$
1a'
#2215
0a'
#2220
b00110011 ;$
1a'
#2225
0a'
#2230
b00110100 ;$
1a'
#2235
0a'
#2240
b00110101 ;$
1a'
#2245
0a'
#2250
b00110110 ;$
1a'
#2255
0a'
#2260
b00110111 ;$
1a'
#2265
0a'
#2270
b00111000 ;$
1a'
#2275
0a'
#2280
b00111001 ;$
1a'
#2285
0a'
#2290
b00111010 ;$
1a'
#2295
0a'
#2300
b00111011 ;$
1a'
#2305
0a'
#2310
b00111100 ;$
1a'
#2315
0a'
#2320
b00111101 ;$
1a'
#2325
0a'
#2330
b00111110 ;$
1a'
#2335
0a'
#2340
b00111111 ;$
1a'
#2345
0a'
#2350
b01000000 ;$
1a'
#2355
0a'
#2360
b01000001 ;$
1a'
#2365
0a'
#2370
b01000010 ;$
1a'
#2375
0a'
#2380
b01000011 ;$
1a'
#2385
0a'
#2390
b01000100 ;$
1a'
#2395
0a'
#2400
b01000101 ;$
1a'
#2405
0a'
#2410
b01000110 ;$
1a'
#2415
0a'
#2420
b01000111 ;$
1a'
#2425
0a'
#2430
b01001000 ;$
1a'
#2435
0a'
#2440
b01001001 ;$
1a'
#2445
0a'
#2450
b01001010 ;$
1a'
#2455
0a'
#2460
b01001011 ;$
1a'
#2465
0a'
#2470
b01001100 ;$
1a'
#2475
0a'
#2480
b01001101 ;$
1a'
#2485
0a'
#2490
b01001110 ;$
1a'
#2495
0a'
#2500
b01001111 ;$
1a'
#2505
0a'
#2510
b01010000 ;$
1a'
#2515
0a'
#2520
b01010001 ;$
1a'
#2525
0a'
#2530
b01010010 ;$
1a'
#2535
0a'
#2540
b01010011 ;$
1a'
#2545
0a'
#2550
b01010100 ;$
1a'
#2555
0a'
#2560
b01010101 ;$
1a'
#2565
0a'
#2570
b01010110 ;$
1a'
#2575
0a'
#2580
b01010111 ;$
1a'
#2585
0a'
#2590
b01011000 ;$
1a'
#2595
0a'
#2600
b01011001 ;$
1a'
#2605
0a'
#2610
b01011010 ;$
1a'
#2615
0a'
#2620
b01011011 ;$
1a'
#2625
0a'
#2630
b01011100 ;$
1a'
#2635
0a'
#2640
b01011101 ;$
1a'
#2645
0a'
#2650
b01011110 ;$
1a'
#2655
0a'
#2660
b01011111 ;$
1a'
#2665
0a'
#2670
b01100000 ;$
1a'
#2675
0a'
#2680
b01100001 ;$
1a'
#2685
0a'
#2690
b01100010 ;$
1a'
#2695
0a'
#2700
b01100011 ;$
1a'
#2705
0a'
#2710
b00001 ?"
1o"
1w"
1)#
11#
b01100100 ;$
1a'
#2715
0a'
#2720
0o"
0w"
0)#
01#
b01100101 ;$
1C$
b00001 k$
1-%
1a'
#2725
0a'
#2730
b00000000 ;$
0C$
0?&
1a'
#2735
0a'
#2740
b00000001 ;$
1a'
#2745
0a'
#2750
b00000010 ;$
1a'
#2755
0a'
#2760
b00000011 ;$
1a'
#2765
0a'
#2770
b00000100 ;$
1a'
#2775
0a'
#2780
b00000101 ;$
1a'
#2785
0a'
#2790
b00000110 ;$
1a'
#2795
0a'
#2800
b00000111 ;$
1a'
#2805
0a'
#2810
b00001000 ;$
1a'
#2815
0a'
#2820
b00001001 ;$
1a'
#2825
0a'
#2830
b00001010 ;$
1a'
#2835
0a'
#2840
b00001011 ;$
1a'
#2845
0a'
#2850
b00001100 ;$
1a'
#2855
0a'
#2860
b00001101 ;$
1a'
#2865
0a'
#2870
b00001110 ;$
1a'
#2875
0a'
#2880
b00001111 ;$
1a'
#2885
0a'
#2890
b00010000 ;$
1a'
#2895
0a'
#2900
b00010001 ;$
1a'
#2905
0a'
#2910
b00010010 ;$
1a'
#2915
0a'
#2920
b00010011 ;$
1a'
#2925
0a'
#2930
b00010100 ;$
1a'
#2935
0a'
#2940
b00010101 ;$
1a'
#2945
0a'
#2950
b00010110 ;$
1a'
#2955
0a'
#2960
b00010111 ;$
1a'
#2965
0a'
#2970
b00011000 ;$
1a'
#2975
0a'
#2980
b00011001 ;$
1a'
#2985
0a'
#2990
b00011010 ;$
1a'
#2995
0a'
#3000
b00011011 ;$
1a'
#3005
0a'
#3010
b00011100 ;$
1a'
#3015
0a'
#3020
b00011101 ;$
1a'
#3025
0a'
#3030
b00011110 ;$
1a'
#3035
0a'
#3040
b00011111 ;$
1a'
#3045
0a'
#3050
b00100000 ;$
1a'
#3055
0a'
#3060
b00100001 ;$
1a'
#3065
0a'
#3070
b00100010 ;$
1a'
#3075
0a'
#3080
b00100011 ;$
1a'
#3085
0a'
#3090
b00100100 ;$
1a'
#3095
0a'
#3100
b00100101 ;$
1a'
#3105
0a'
#3110
b00100110 ;$
1a'
#3115
0a'
#3120
b00100111 ;$
1a'
#3125
0a'
#3130
b00101000 ;$
1a'
#3135
0a'
#3140
b00101001 ;$
1a'
#3145
0a'
#3150
b00101010 ;$
1a'
#3155
0a'
#3160
b00101011 ;$
1a'
#3165
0a'
#3170
b00101100 ;$
1a'
#3175
0a'
#3180
b00101101 ;$
1a'
#3185
0a'
#3190
b00101110 ;$
1a'
#3195
0a'
#3200
b00101111 ;$
1a'
#3205
0a'
#3210
b00110000 ;$
1a'
#3215
0a'
#3220
b00110001 ;$
1a'
#3225
0a'
#3230
b00110010 ;$
1a'
#3235
0a'
#3240
b00110011 ;$
1a'
#3245
0a'
#3250
b00110100 ;$
1a'
#3255
0a'
#3260
b00110101 ;$
1a'
#3265
0a'
#3270
b00110110 ;$
1a'
#3275
0a'
#3280
b00110111 ;$
1a'
#3285
0a'
#3290
b00111000 ;$
1a'
#3295
0a'
#3300
b00111001 ;$
1a'
#3305
0a'
#3310
b00111010 ;$
1a'
#3315
0a'
#3320
b00111011 ;$
1a'
#3325
0a'
#3330
b00111100 ;$
1a'
#3335
0a'
#3340
b00111101 ;$
1a'
#3345
0a'
#3350
b00111110 ;$
1a'
#3355
0a'
#3360
b00111111 ;$
1a'
#3365
0a'
#3370
b01000000 ;$
1a'
#3375
0a'
#3380
b01000001 ;$
1a'
#3385
0a'
#3390
b01000010 ;$
1a'
#3395
0a'
#3400
b01000011 ;$
1a'
#3405
0a'
#3410
b01000100 ;$
1a'
#3415
0a'
#3420
b01000101 ;$
1a'
#3425
0a'
#3430
b01000110 ;$
1a'
#3435
0a'
#3440
b01000111 ;$
1a'
#3445
0a'
#3450
b01001000 ;$
1a'
#3455
0a'
#3460
b01001001 ;$
1a'
#3465
0a'
#3470
b01001010 ;$
1a'
#3475
0a'
#3480
b01001011 ;$
1a'
#3485
0a'
#3490
b01001100 ;$
1a'
#3495
0a'
#3500
b01001101 ;$
1a'
#3505
0a'
#3510
b01001110 ;$
1a'
#3515
0a'
#3520
b01001111 ;$
1a'
#3525
0a'
#3530
b01010000 ;$
1a'
#3535
0a'
#3540
b01010001 ;$
1a'
#3545
0a'
#3550
b01010010 ;$
1a'
#3555
0a'
#3560
b01010011 ;$
1a'
#3565
0a'
#3570
b01010100 ;$
1a'
#3575
0a'
#3580
b01010101 ;$
1a'
#3585
0a'
#3590
b01010110 ;$
1a'
#3595
0a'
#3600
b01010111 ;$
1a'
#3605
0a'
#3610
b01011000 ;$
1a'
#3615
0a'
#3620
b01011001 ;$
1a'
#3625
0a'
#3630
b01011010 ;$
1a'
#3635
0a'
#3640
b01011011 ;$
1a'
#3645
0a'
#3650
b01011100 ;$
1a'
#3655
0a'
#3660
b01011101 ;$
1a'
#3665
0a'
#3670
b01011110 ;$
1a'
#3675
0a'
#3680
b01011111 ;$
1a'
#3685
0a'
#3690
b01100000 ;$
1a'
#3695
0a'
#3700
b01100001 ;$
1a'
#3705
0a'
#3710
b01100010 ;$
1a'
#3715
0a'
#3720
b01100011 ;$
1a'
#3725
0a'
#3730
b00010 ?"
1o"
1w"
1)#
11#
b01100100 ;$
1a'
#3735
0a'
#3740
0o"
0w"
0)#
01#
b01100101 ;$
1C$
b0100000111101110 S$
b00010 k$
0-%
1a'
#3745
0a'
#3750
b00000000 ;$
0C$
1?&
1a'
#3755
0a'
#3760
b00000001 ;$
1a'
#3765
0a'
#3770
b00000010 ;$
1a'
#3775
0a'
#3780
b00000011 ;$
1a'
#3785
0a'
#3790
b00000100 ;$
1a'
#3795
0a'
#3800
b00000101 ;$
1a'
#3805
0a'
#3810
b00000110 ;$
1a'
#3815
0a'
#3820
b00000111 ;$
1a'
#3825
0a'
#3830
b00001000 ;$
1a'
#3835
0a'
#3840
b00001001 ;$
1a'
#3845
0a'
#3850
b00001010 ;$
1a'
#3855
0a'
#3860
b00001011 ;$
1a'
#3865
0a'
#3870
b00001100 ;$
1a'
#3875
0a'
#3880
b00001101 ;$
1a'
#3885
0a'
#3890
b00001110 ;$
1a'
#3895
0a'
#3900
b00001111 ;$
1a'
#3905
0a'
#3910
b00010000 ;$
1a'
#3915
0a'
#3920
b00010001 ;$
1a'
#3925
0a'
#3930
b00010010 ;$
1a'
#3935
0a'
#3940
b00010011 ;$
1a'
#3945
0a'
#3950
b00010100 ;$
1a'
#3955
0a'
#3960
b00010101 ;$
1a'
#3965
0a'
#3970
b00010110 ;$
1a'
#3975
0a'
#3980
b00010111 ;$
1a'
#3985
0a'
#3990
b00011000 ;$
1a'
#3995
0a'
#4000
b00011001 ;$
1a'
#4005
0a'
#4010
b00011010 ;$
1a'
#4015
0a'
#4020
b00011011 ;$
1a'
#4025
0a'
#4030
b00011100 ;$
1a'
#4035
0a'
#4040
b00011101 ;$
1a'
#4045
0a'
#4050
b00011110 ;$
1a'
#4055
0a'
#4060
b00011111 ;$
1a'
#4065
0a'
#4070
b00100000 ;$
1a'
#4075
0a'
#4080
b00100001 ;$
1a'
#4085
0a'
#4090
b00100010 ;$
1a'
#4095
0a'
#4100
b00100011 ;$
1a'
#4105
0a'
#4110
b00100100 ;$
1a'
#4115
0a'
#4120
b00100101 ;$
1a'
#4125
0a'
#4130
b00100110 ;$
1a'
#4135
0a'
#4140
b00100111 ;$
1a'
#4145
0a'
#4150
b00101000 ;$
1a'
#4155
0a'
#4160
b00101001 ;$
1a'
#4165
0a'
#4170
b00101010 ;$
1a'
#4175
0a'
#4180
b00101011 ;$
1a'
#4185
0a'
#4190
b00101100 ;$
1a'
#4195
0a'
#4200
b00101101 ;$
1a'
#4205
0a'
#4210
b00101110 ;$
1a'
#4215
0a'
#4220
b00101111 ;$
1a'
#4225
0a'
#4230
b00110000 ;$
1a'
#4235
0a'
#4240
b00110001 ;$
1a'
#4245
0a'
#4250
b00110010 ;$
1a'
