simWorkspace/SawToothWaveGenerator/test.vcd
$version Generated by VerilatedVcd $end
$date 05/19/23 17:00:24 $end
$timescale 1ps $end

 $scope module TOP $end
  $var wire  1 2 clk $end
  $var wire  1 , io_direction $end
  $var wire  1 0 io_init $end
  $var wire 15 1 io_output [14:0] $end
  $var wire  1 . io_start $end
  $var wire  8 - io_step [7:0] $end
  $var wire  1 / io_stop $end
  $var wire  1 3 reset $end
  $scope module SawToothWaveGenerator $end
   $var wire  1 2 clk $end
   $var wire  1 + init $end
   $var wire  1 & init_regNext $end
   $var wire  1 , io_direction $end
   $var wire  1 0 io_init $end
   $var wire 15 1 io_output [14:0] $end
   $var wire  1 . io_start $end
   $var wire  8 - io_step [7:0] $end
   $var wire  1 / io_stop $end
   $var wire  1 % isRunning $end
   $var wire  1 3 reset $end
   $var wire 15 $ sawtooth [14:0] $end
   $var wire  1 ) start $end
   $var wire  1 ( start_regNext $end
   $var wire  8 # step [7:0] $end
   $var wire  1 * stop $end
   $var wire  1 ' stop_regNext $end
   $var wire  1 4 when_SawToothWaveGenerator_l27 $end
   $var wire  1 5 when_SawToothWaveGenerator_l29 $end
  $upscope $end
 $upscope $end
$enddefinitions $end


#0
b00000000 #
b000000000000000 $
0%
0&
0'
1(
0)
0*
0+
1,
b11111010 -
0.
0/
00
b000000000000000 1
02
13
04
05
#160
03
#170
b11111010 #
0(
12
#175
02
#180
12
#185
02
#190
12
#195
02
#200
12
#205
02
#210
12
#215
02
#220
12
#225
02
#230
12
#235
02
#240
12
#245
02
#250
12
#255
02
#260
12
#265
02
#270
12
#275
02
#280
12
#285
02
#290
12
#295
02
#300
12
#305
02
#310
12
#315
02
#320
12
#325
02
#330
12
#335
02
#340
12
#345
02
#350
12
#355
02
#360
12
#365
02
#370
12
#375
02
#380
12
#385
02
#390
12
#395
02
#400
12
#405
02
#410
12
#415
02
#420
12
#425
02
#430
12
#435
02
#440
12
#445
02
#450
12
#455
02
#460
12
#465
02
#470
12
#475
02
#480
12
#485
02
#490
12
#495
02
#500
12
#505
02
#510
12
#515
02
#520
12
#525
02
#530
12
#535
02
#540
12
#545
02
#550
12
#555
02
#560
12
#565
02
#570
12
#575
02
#580
12
#585
02
#590
12
#595
02
#600
12
#605
02
#610
12
#615
02
#620
12
#625
02
#630
12
#635
02
#640
12
#645
02
#650
12
#655
02
#660
12
#665
02
#670
12
#675
02
#680
12
#685
02
#690
12
#695
02
#700
12
#705
02
#710
12
#715
02
#720
12
#725
02
#730
12
#735
02
#740
12
#745
02
#750
12
#755
02
#760
12
#765
02
#770
12
#775
02
#780
12
#785
02
#790
12
#795
02
#800
12
#805
02
#810
12
#815
02
#820
12
#825
02
#830
12
#835
02
#840
12
#845
02
#850
12
#855
02
#860
12
#865
02
#870
12
#875
02
#880
12
#885
02
#890
12
#895
02
#900
12
#905
02
#910
12
#915
02
#920
12
#925
02
#930
12
#935
02
#940
12
#945
02
#950
12
#955
02
#960
12
#965
02
#970
12
#975
02
#980
12
#985
02
#990
12
#995
02
#1000
12
#1005
02
#1010
12
#1015
02
#1020
12
#1025
02
#1030
12
#1035
02
#1040
12
#1045
02
#1050
12
#1055
02
#1060
12
#1065
02
#1070
12
#1075
02
#1080
12
#1085
02
#1090
12
#1095
02
#1100
12
#1105
02
#1110
12
#1115
02
#1120
12
#1125
02
#1130
12
#1135
02
#1140
12
#1145
02
#1150
12
#1155
02
#1160
1.
12
#1165
02
#1170
1)
12
15
#1175
02
#1180
1%
1(
12
05
#1185
02
#1190
b000000011111010 $
b000000011111010 1
12
#1195
02
#1200
b000000111110100 $
b000000111110100 1
12
#1205
02
#1210
b000001011101110 $
b000001011101110 1
12
#1215
02
#1220
b000001111101000 $
b000001111101000 1
12
#1225
02
#1230
b000010011100010 $
b000010011100010 1
12
#1235
02
#1240
b000010111011100 $
b000010111011100 1
12
#1245
02
#1250
b000011011010110 $
b000011011010110 1
12
#1255
02
#1260
b000011111010000 $
b000011111010000 1
12
#1265
02
#1270
b000100011001010 $
b000100011001010 1
12
#1275
02
#1280
b000100111000100 $
b000100111000100 1
12
#1285
02
#1290
b000101010111110 $
b000101010111110 1
12
#1295
02
#1300
b000101110111000 $
b000101110111000 1
12
#1305
02
#1310
b000110010110010 $
b000110010110010 1
12
#1315
02
#1320
b000110110101100 $
b000110110101100 1
12
#1325
02
#1330
b000111010100110 $
b000111010100110 1
12
#1335
02
#1340
b000111110100000 $
b000111110100000 1
12
#1345
02
#1350
b001000010011010 $
b001000010011010 1
12
#1355
02
#1360
b001000110010100 $
b001000110010100 1
12
#1365
02
#1370
b001001010001110 $
b001001010001110 1
12
#1375
02
#1380
b001001110001000 $
b001001110001000 1
12
#1385
02
#1390
b001010010000010 $
b001010010000010 1
12
#1395
02
#1400
b001010101111100 $
b001010101111100 1
12
#1405
02
#1410
b001011001110110 $
b001011001110110 1
12
#1415
02
#1420
b001011101110000 $
b001011101110000 1
12
#1425
02
#1430
b001100001101010 $
b001100001101010 1
12
#1435
02
#1440
b001100101100100 $
b001100101100100 1
12
#1445
02
#1450
b001101001011110 $
b001101001011110 1
12
#1455
02
#1460
b001101101011000 $
b001101101011000 1
12
#1465
02
#1470
b001110001010010 $
b001110001010010 1
12
#1475
02
#1480
b001110101001100 $
b001110101001100 1
12
#1485
02
#1490
b001111001000110 $
b001111001000110 1
12
#1495
02
#1500
b001111101000000 $
b001111101000000 1
12
#1505
02
#1510
b010000000111010 $
b010000000111010 1
12
#1515
02
#1520
b010000100110100 $
b010000100110100 1
12
#1525
02
#1530
b010001000101110 $
b010001000101110 1
12
#1535
02
#1540
b010001100101000 $
b010001100101000 1
12
#1545
02
#1550
b010010000100010 $
b010010000100010 1
12
#1555
02
#1560
b010010100011100 $
b010010100011100 1
12
#1565
02
#1570
b010011000010110 $
b010011000010110 1
12
#1575
02
#1580
b010011100010000 $
b010011100010000 1
12
#1585
02
#1590
b010100000001010 $
b010100000001010 1
12
#1595
02
#1600
b010100100000100 $
b010100100000100 1
12
#1605
02
#1610
b010100111111110 $
b010100111111110 1
12
#1615
02
#1620
b010101011111000 $
b010101011111000 1
12
#1625
02
#1630
b010101111110010 $
b010101111110010 1
12
#1635
02
#1640
b010110011101100 $
b010110011101100 1
12
#1645
02
#1650
b010110111100110 $
b010110111100110 1
12
#1655
02
#1660
b010111011100000 $
b010111011100000 1
12
#1665
02
#1670
b010111111011010 $
b010111111011010 1
12
#1675
02
#1680
b011000011010100 $
b011000011010100 1
12
#1685
02
#1690
b011000111001110 $
b011000111001110 1
12
#1695
02
#1700
b011001011001000 $
b011001011001000 1
12
#1705
02
#1710
b011001111000010 $
b011001111000010 1
12
#1715
02
#1720
b011010010111100 $
b011010010111100 1
12
#1725
02
#1730
b011010110110110 $
b011010110110110 1
12
#1735
02
#1740
b011011010110000 $
b011011010110000 1
12
#1745
02
#1750
b011011110101010 $
b011011110101010 1
12
#1755
02
#1760
b011100010100100 $
b011100010100100 1
12
#1765
02
#1770
b011100110011110 $
b011100110011110 1
12
#1775
02
#1780
b011101010011000 $
b011101010011000 1
12
#1785
02
#1790
b011101110010010 $
b011101110010010 1
12
#1795
02
#1800
b011110010001100 $
b011110010001100 1
12
#1805
02
#1810
b011110110000110 $
b011110110000110 1
12
#1815
02
#1820
b011111010000000 $
b011111010000000 1
12
#1825
02
#1830
b011111101111010 $
b011111101111010 1
12
#1835
02
#1840
b100000001110100 $
b100000001110100 1
12
#1845
02
#1850
b100000101101110 $
b100000101101110 1
12
#1855
02
#1860
b100001001101000 $
b100001001101000 1
12
#1865
02
#1870
b100001101100010 $
b100001101100010 1
12
#1875
02
#1880
b100010001011100 $
b100010001011100 1
12
#1885
02
#1890
b100010101010110 $
b100010101010110 1
12
#1895
02
#1900
b100011001010000 $
b100011001010000 1
12
#1905
02
#1910
b100011101001010 $
b100011101001010 1
12
#1915
02
#1920
b100100001000100 $
b100100001000100 1
12
#1925
02
#1930
b100100100111110 $
b100100100111110 1
12
#1935
02
#1940
b100101000111000 $
b100101000111000 1
12
#1945
02
#1950
b100101100110010 $
b100101100110010 1
12
#1955
02
#1960
b100110000101100 $
b100110000101100 1
12
#1965
02
#1970
b100110100100110 $
b100110100100110 1
12
#1975
02
#1980
b100111000100000 $
b100111000100000 1
12
#1985
02
#1990
b100111100011010 $
b100111100011010 1
12
#1995
02
#2000
b101000000010100 $
b101000000010100 1
12
#2005
02
#2010
b101000100001110 $
b101000100001110 1
12
#2015
02
#2020
b101001000001000 $
b101001000001000 1
12
#2025
02
#2030
b101001100000010 $
b101001100000010 1
12
#2035
02
#2040
b101001111111100 $
b101001111111100 1
12
#2045
02
#2050
b101010011110110 $
b101010011110110 1
12
#2055
02
#2060
b101010111110000 $
b101010111110000 1
12
#2065
02
#2070
b101011011101010 $
b101011011101010 1
12
#2075
02
#2080
b101011111100100 $
b101011111100100 1
12
#2085
02
#2090
b101100011011110 $
b101100011011110 1
12
#2095
02
#2100
b101100111011000 $
b101100111011000 1
12
#2105
02
#2110
b101101011010010 $
b101101011010010 1
12
#2115
02
#2120
b101101111001100 $
b101101111001100 1
12
#2125
02
#2130
b101110011000110 $
b101110011000110 1
12
#2135
02
#2140
b101110111000000 $
b101110111000000 1
12
#2145
02
#2150
b101111010111010 $
b101111010111010 1
12
#2155
02
#2160
b101111110110100 $
b101111110110100 1
12
#2165
02
#2170
b110000010101110 $
b110000010101110 1
12
#2175
02
#2180
b110000110101000 $
b110000110101000 1
12
#2185
02
#2190
b110001010100010 $
b110001010100010 1
12
#2195
02
#2200
b110001110011100 $
b110001110011100 1
12
#2205
02
#2210
b110010010010110 $
b110010010010110 1
12
#2215
02
#2220
b110010110010000 $
b110010110010000 1
12
#2225
02
#2230
b110011010001010 $
b110011010001010 1
12
#2235
02
#2240
b110011110000100 $
b110011110000100 1
12
#2245
02
#2250
b110100001111110 $
b110100001111110 1
12
#2255
02
#2260
b110100101111000 $
b110100101111000 1
12
#2265
02
#2270
b110101001110010 $
b110101001110010 1
12
#2275
02
#2280
b110101101101100 $
b110101101101100 1
12
#2285
02
#2290
b110110001100110 $
b110110001100110 1
12
#2295
02
#2300
b110110101100000 $
b110110101100000 1
12
#2305
02
#2310
b110111001011010 $
b110111001011010 1
12
#2315
02
#2320
b110111101010100 $
b110111101010100 1
12
#2325
02
#2330
b111000001001110 $
b111000001001110 1
12
#2335
02
#2340
b111000101001000 $
b111000101001000 1
12
#2345
02
#2350
b111001001000010 $
b111001001000010 1
12
#2355
02
#2360
b111001100111100 $
b111001100111100 1
12
#2365
02
#2370
b111010000110110 $
b111010000110110 1
12
#2375
02
#2380
b111010100110000 $
b111010100110000 1
12
#2385
02
#2390
b111011000101010 $
b111011000101010 1
12
#2395
02
#2400
b111011100100100 $
b111011100100100 1
12
#2405
02
#2410
b111100000011110 $
b111100000011110 1
12
#2415
02
#2420
b111100100011000 $
b111100100011000 1
12
#2425
02
#2430
b111101000010010 $
b111101000010010 1
12
#2435
02
#2440
b111101100001100 $
b111101100001100 1
12
#2445
02
#2450
b111110000000110 $
b111110000000110 1
12
#2455
02
#2460
b111110100000000 $
b111110100000000 1
12
#2465
02
#2470
b111110111111010 $
b111110111111010 1
12
#2475
02
#2480
b111111011110100 $
b111111011110100 1
12
#2485
02
#2490
b111111111101110 $
b111111111101110 1
12
#2495
02
#2500
b000000011101000 $
b000000011101000 1
12
#2505
02
#2510
b000000111100010 $
b000000111100010 1
12
#2515
02
#2520
b000001011011100 $
b000001011011100 1
12
#2525
02
#2530
b000001111010110 $
b000001111010110 1
12
#2535
02
#2540
b000010011010000 $
b000010011010000 1
12
#2545
02
#2550
b000010111001010 $
b000010111001010 1
12
#2555
02
#2560
b000011011000100 $
b000011011000100 1
12
#2565
02
#2570
b000011110111110 $
b000011110111110 1
12
#2575
02
#2580
b000100010111000 $
b000100010111000 1
12
#2585
02
#2590
b000100110110010 $
b000100110110010 1
12
#2595
02
#2600
b000101010101100 $
b000101010101100 1
12
#2605
02
#2610
b000101110100110 $
b000101110100110 1
12
#2615
02
#2620
b000110010100000 $
b000110010100000 1
12
#2625
02
#2630
b000110110011010 $
b000110110011010 1
12
#2635
02
#2640
b000111010010100 $
b000111010010100 1
12
#2645
02
#2650
b000111110001110 $
b000111110001110 1
12
#2655
02
#2660
b001000010001000 $
b001000010001000 1
12
#2665
02
#2670
b001000110000010 $
b001000110000010 1
12
#2675
02
#2680
b001001001111100 $
b001001001111100 1
12
#2685
02
#2690
b001001101110110 $
b001001101110110 1
12
#2695
02
#2700
b001010001110000 $
b001010001110000 1
12
#2705
02
#2710
b001010101101010 $
b001010101101010 1
12
#2715
02
#2720
b001011001100100 $
b001011001100100 1
12
#2725
02
#2730
b001011101011110 $
b001011101011110 1
12
#2735
02
#2740
b001100001011000 $
b001100001011000 1
12
#2745
02
#2750
b001100101010010 $
b001100101010010 1
12
#2755
02
#2760
b001101001001100 $
b001101001001100 1
12
#2765
02
#2770
b001101101000110 $
b001101101000110 1
12
#2775
02
#2780
b001110001000000 $
b001110001000000 1
12
#2785
02
#2790
b001110100111010 $
b001110100111010 1
12
#2795
02
#2800
b001111000110100 $
b001111000110100 1
12
#2805
02
#2810
b001111100101110 $
b001111100101110 1
12
#2815
02
#2820
b010000000101000 $
b010000000101000 1
12
#2825
02
#2830
b010000100100010 $
b010000100100010 1
12
#2835
02
#2840
b010001000011100 $
b010001000011100 1
12
#2845
02
#2850
b010001100010110 $
b010001100010110 1
12
#2855
02
#2860
b010010000010000 $
b010010000010000 1
12
#2865
02
#2870
b010010100001010 $
b010010100001010 1
12
#2875
02
#2880
b010011000000100 $
b010011000000100 1
12
#2885
02
#2890
b010011011111110 $
b010011011111110 1
12
#2895
02
#2900
b010011111111000 $
b010011111111000 1
12
#2905
02
#2910
b010100011110010 $
b010100011110010 1
12
#2915
02
#2920
b010100111101100 $
b010100111101100 1
12
#2925
02
#2930
b010101011100110 $
b010101011100110 1
12
#2935
02
#2940
b010101111100000 $
b010101111100000 1
12
#2945
02
#2950
b010110011011010 $
b010110011011010 1
12
#2955
02
#2960
b010110111010100 $
b010110111010100 1
12
#2965
02
#2970
b010111011001110 $
b010111011001110 1
12
#2975
02
#2980
b010111111001000 $
b010111111001000 1
12
#2985
02
#2990
b011000011000010 $
b011000011000010 1
12
#2995
02
#3000
b011000110111100 $
b011000110111100 1
12
#3005
02
#3010
b011001010110110 $
b011001010110110 1
12
#3015
02
#3020
b011001110110000 $
b011001110110000 1
12
#3025
02
#3030
b011010010101010 $
b011010010101010 1
12
#3035
02
#3040
b011010110100100 $
b011010110100100 1
12
#3045
02
#3050
b011011010011110 $
b011011010011110 1
12
#3055
02
#3060
b011011110011000 $
b011011110011000 1
12
#3065
02
#3070
b011100010010010 $
b011100010010010 1
12
#3075
02
#3080
b011100110001100 $
b011100110001100 1
12
#3085
02
#3090
b011101010000110 $
b011101010000110 1
12
#3095
02
#3100
b011101110000000 $
b011101110000000 1
12
#3105
02
#3110
b011110001111010 $
b011110001111010 1
12
#3115
02
#3120
b011110101110100 $
b011110101110100 1
12
#3125
02
#3130
b011111001101110 $
b011111001101110 1
12
#3135
02
#3140
b011111101101000 $
b011111101101000 1
12
#3145
02
#3150
b100000001100010 $
b100000001100010 1
12
#3155
02
#3160
b100000101011100 $
b100000101011100 1
12
#3165
02
#3170
b100001001010110 $
b100001001010110 1
12
#3175
02
#3180
b100001101010000 $
b100001101010000 1
12
#3185
02
#3190
b100010001001010 $
b100010001001010 1
12
#3195
02
#3200
b100010101000100 $
b100010101000100 1
12
#3205
02
#3210
b100011000111110 $
b100011000111110 1
12
#3215
02
#3220
b100011100111000 $
b100011100111000 1
12
#3225
02
#3230
b100100000110010 $
b100100000110010 1
12
#3235
02
#3240
b100100100101100 $
b100100100101100 1
12
#3245
02
#3250
b100101000100110 $
b100101000100110 1
12
#3255
02
#3260
b100101100100000 $
b100101100100000 1
12
#3265
02
#3270
b100110000011010 $
b100110000011010 1
12
#3275
02
#3280
b100110100010100 $
b100110100010100 1
12
#3285
02
#3290
b100111000001110 $
b100111000001110 1
12
#3295
02
#3300
b100111100001000 $
b100111100001000 1
12
#3305
02
#3310
b101000000000010 $
b101000000000010 1
12
#3315
02
#3320
b101000011111100 $
b101000011111100 1
12
#3325
02
#3330
b101000111110110 $
b101000111110110 1
12
#3335
02
#3340
b101001011110000 $
b101001011110000 1
12
#3345
02
#3350
b101001111101010 $
b101001111101010 1
12
#3355
02
#3360
b101010011100100 $
b101010011100100 1
12
#3365
02
#3370
b101010111011110 $
b101010111011110 1
12
#3375
02
#3380
b101011011011000 $
b101011011011000 1
12
#3385
02
#3390
b101011111010010 $
b101011111010010 1
12
#3395
02
#3400
b101100011001100 $
b101100011001100 1
12
#3405
02
#3410
b101100111000110 $
b101100111000110 1
12
#3415
02
#3420
b101101011000000 $
b101101011000000 1
12
#3425
02
#3430
b101101110111010 $
b101101110111010 1
12
#3435
02
#3440
b101110010110100 $
b101110010110100 1
12
#3445
02
#3450
b101110110101110 $
b101110110101110 1
12
#3455
02
#3460
b101111010101000 $
b101111010101000 1
12
#3465
02
#3470
b101111110100010 $
b101111110100010 1
12
#3475
02
#3480
b110000010011100 $
b110000010011100 1
12
#3485
02
#3490
b110000110010110 $
b110000110010110 1
12
#3495
02
#3500
b110001010010000 $
b110001010010000 1
12
#3505
02
#3510
b110001110001010 $
b110001110001010 1
12
#3515
02
#3520
b110010010000100 $
b110010010000100 1
12
#3525
02
#3530
b110010101111110 $
b110010101111110 1
12
#3535
02
#3540
b110011001111000 $
b110011001111000 1
12
#3545
02
#3550
b110011101110010 $
b110011101110010 1
12
#3555
02
#3560
b110100001101100 $
b110100001101100 1
12
#3565
02
#3570
b110100101100110 $
b110100101100110 1
12
#3575
02
#3580
b110101001100000 $
b110101001100000 1
12
#3585
02
#3590
b110101101011010 $
b110101101011010 1
12
#3595
02
#3600
b110110001010100 $
b110110001010100 1
12
#3605
02
#3610
b110110101001110 $
b110110101001110 1
12
#3615
02
#3620
b110111001001000 $
b110111001001000 1
12
#3625
02
#3630
b110111101000010 $
b110111101000010 1
12
#3635
02
#3640
b111000000111100 $
b111000000111100 1
12
#3645
02
#3650
b111000100110110 $
b111000100110110 1
12
#3655
02
#3660
b111001000110000 $
b111001000110000 1
12
#3665
02
#3670
b111001100101010 $
b111001100101010 1
12
#3675
02
#3680
b111010000100100 $
b111010000100100 1
12
#3685
02
#3690
b111010100011110 $
b111010100011110 1
12
#3695
02
#3700
b111011000011000 $
b111011000011000 1
12
#3705
02
#3710
b111011100010010 $
b111011100010010 1
12
#3715
02
#3720
b111100000001100 $
b111100000001100 1
12
#3725
02
#3730
b111100100000110 $
b111100100000110 1
12
#3735
02
#3740
b111101000000000 $
b111101000000000 1
12
#3745
02
#3750
b111101011111010 $
b111101011111010 1
12
#3755
02
#3760
b111101111110100 $
b111101111110100 1
12
#3765
02
#3770
b111110011101110 $
b111110011101110 1
12
#3775
02
#3780
b111110111101000 $
b111110111101000 1
12
#3785
02
#3790
b111111011100010 $
b111111011100010 1
12
#3795
02
#3800
b111111111011100 $
b111111111011100 1
12
#3805
02
#3810
b000000011010110 $
b000000011010110 1
12
#3815
02
#3820
b000000111010000 $
b000000111010000 1
12
#3825
02
#3830
b000001011001010 $
b000001011001010 1
12
#3835
02
#3840
b000001111000100 $
b000001111000100 1
12
#3845
02
#3850
b000010010111110 $
b000010010111110 1
12
#3855
02
#3860
b000010110111000 $
b000010110111000 1
12
#3865
02
#3870
b000011010110010 $
b000011010110010 1
12
#3875
02
#3880
b000011110101100 $
b000011110101100 1
12
#3885
02
#3890
b000100010100110 $
b000100010100110 1
12
#3895
02
#3900
b000100110100000 $
b000100110100000 1
12
#3905
02
#3910
b000101010011010 $
b000101010011010 1
12
#3915
02
#3920
b000101110010100 $
b000101110010100 1
12
#3925
02
#3930
b000110010001110 $
b000110010001110 1
12
#3935
02
#3940
b000110110001000 $
b000110110001000 1
12
#3945
02
#3950
b000111010000010 $
b000111010000010 1
12
#3955
02
#3960
b000111101111100 $
b000111101111100 1
12
#3965
02
#3970
b001000001110110 $
b001000001110110 1
12
#3975
02
#3980
b001000101110000 $
b001000101110000 1
12
#3985
02
#3990
b001001001101010 $
b001001001101010 1
12
#3995
02
#4000
b001001101100100 $
b001001101100100 1
12
#4005
02
#4010
b001010001011110 $
b001010001011110 1
12
#4015
02
#4020
b001010101011000 $
b001010101011000 1
12
#4025
02
#4030
b001011001010010 $
b001011001010010 1
12
#4035
02
#4040
b001011101001100 $
b001011101001100 1
12
#4045
02
#4050
b001100001000110 $
b001100001000110 1
12
#4055
02
#4060
b001100101000000 $
b001100101000000 1
12
#4065
02
#4070
b001101000111010 $
b001101000111010 1
12
#4075
02
#4080
b001101100110100 $
b001101100110100 1
12
#4085
02
#4090
b001110000101110 $
b001110000101110 1
12
#4095
02
#4100
b001110100101000 $
b001110100101000 1
12
#4105
02
#4110
b001111000100010 $
b001111000100010 1
12
#4115
02
#4120
b001111100011100 $
b001111100011100 1
12
#4125
02
#4130
b010000000010110 $
b010000000010110 1
12
#4135
02
#4140
b010000100010000 $
b010000100010000 1
12
#4145
02
#4150
b010001000001010 $
b010001000001010 1
12
#4155
02
#4160
b010001100000100 $
b010001100000100 1
12
#4165
02
#4170
b010001111111110 $
b010001111111110 1
12
#4175
02
#4180
b010010011111000 $
b010010011111000 1
12
#4185
02
#4190
b010010111110010 $
b010010111110010 1
12
#4195
02
#4200
b010011011101100 $
b010011011101100 1
12
#4205
02
#4210
b010011111100110 $
b010011111100110 1
12
#4215
02
#4220
b010100011100000 $
b010100011100000 1
12
#4225
02
#4230
b010100111011010 $
b010100111011010 1
12
#4235
02
#4240
b010101011010100 $
b010101011010100 1
12
#4245
02
#4250
b010101111001110 $
b010101111001110 1
12
#4255
02
#4260
b010110011001000 $
b010110011001000 1
12
#4265
02
#4270
b010110111000010 $
b010110111000010 1
12
#4275
02
#4280
b010111010111100 $
b010111010111100 1
12
#4285
02
#4290
b010111110110110 $
b010111110110110 1
12
#4295
02
#4300
b011000010110000 $
b011000010110000 1
12
#4305
02
#4310
b011000110101010 $
b011000110101010 1
12
#4315
02
#4320
b011001010100100 $
b011001010100100 1
12
#4325
02
#4330
b011001110011110 $
b011001110011110 1
12
#4335
02
#4340
b011010010011000 $
b011010010011000 1
12
#4345
02
#4350
b011010110010010 $
b011010110010010 1
12
#4355
02
#4360
b011011010001100 $
b011011010001100 1
12
#4365
02
#4370
b011011110000110 $
b011011110000110 1
12
#4375
02
#4380
b011100010000000 $
b011100010000000 1
12
#4385
02
#4390
b011100101111010 $
b011100101111010 1
12
#4395
02
#4400
b011101001110100 $
b011101001110100 1
12
#4405
02
#4410
b011101101101110 $
b011101101101110 1
12
#4415
02
#4420
b011110001101000 $
b011110001101000 1
12
#4425
02
#4430
b011110101100010 $
b011110101100010 1
12
#4435
02
#4440
b011111001011100 $
b011111001011100 1
12
#4445
02
#4450
b011111101010110 $
b011111101010110 1
12
#4455
02
#4460
b100000001010000 $
b100000001010000 1
12
#4465
02
#4470
b100000101001010 $
b100000101001010 1
12
#4475
02
#4480
b100001001000100 $
b100001001000100 1
12
#4485
02
#4490
b100001100111110 $
b100001100111110 1
12
#4495
02
#4500
b100010000111000 $
b100010000111000 1
12
#4505
02
#4510
b100010100110010 $
b100010100110010 1
12
#4515
02
#4520
b100011000101100 $
b100011000101100 1
12
#4525
02
#4530
b100011100100110 $
b100011100100110 1
12
#4535
02
#4540
b100100000100000 $
b100100000100000 1
12
#4545
02
#4550
b100100100011010 $
b100100100011010 1
12
#4555
02
#4560
b100101000010100 $
b100101000010100 1
12
#4565
02
#4570
b100101100001110 $
b100101100001110 1
12
#4575
02
#4580
b100110000001000 $
b100110000001000 1
12
#4585
02
#4590
b100110100000010 $
b100110100000010 1
12
#4595
02
#4600
b100110111111100 $
b100110111111100 1
12
#4605
02
#4610
b100111011110110 $
b100111011110110 1
12
#4615
02
#4620
b100111111110000 $
b100111111110000 1
12
#4625
02
#4630
b101000011101010 $
b101000011101010 1
12
#4635
02
#4640
b101000111100100 $
b101000111100100 1
12
#4645
02
#4650
b101001011011110 $
b101001011011110 1
12
#4655
02
#4660
b101001111011000 $
b101001111011000 1
12
#4665
02
#4670
b101010011010010 $
b101010011010010 1
12
#4675
02
#4680
b101010111001100 $
b101010111001100 1
12
#4685
02
#4690
b101011011000110 $
b101011011000110 1
12
#4695
02
#4700
b101011111000000 $
b101011111000000 1
12
#4705
02
#4710
b101100010111010 $
b101100010111010 1
12
#4715
02
#4720
b101100110110100 $
b101100110110100 1
12
#4725
02
#4730
b101101010101110 $
b101101010101110 1
12
#4735
02
#4740
b101101110101000 $
b101101110101000 1
12
#4745
02
#4750
b101110010100010 $
b101110010100010 1
12
#4755
02
#4760
b101110110011100 $
b101110110011100 1
12
#4765
02
#4770
b101111010010110 $
b101111010010110 1
12
#4775
02
#4780
b101111110010000 $
b101111110010000 1
12
#4785
02
#4790
b110000010001010 $
b110000010001010 1
12
#4795
02
#4800
b110000110000100 $
b110000110000100 1
12
#4805
02
#4810
b110001001111110 $
b110001001111110 1
12
#4815
02
#4820
b110001101111000 $
b110001101111000 1
12
#4825
02
#4830
b110010001110010 $
b110010001110010 1
12
#4835
02
#4840
b110010101101100 $
b110010101101100 1
12
#4845
02
#4850
b110011001100110 $
b110011001100110 1
12
#4855
02
#4860
b110011101100000 $
b110011101100000 1
12
#4865
02
#4870
b110100001011010 $
b110100001011010 1
12
#4875
02
#4880
b110100101010100 $
b110100101010100 1
12
#4885
02
#4890
b110101001001110 $
b110101001001110 1
12
#4895
02
#4900
b110101101001000 $
b110101101001000 1
12
#4905
02
#4910
b110110001000010 $
b110110001000010 1
12
#4915
02
#4920
b110110100111100 $
b110110100111100 1
12
#4925
02
#4930
b110111000110110 $
b110111000110110 1
12
#4935
02
#4940
b110111100110000 $
b110111100110000 1
12
#4945
02
#4950
b111000000101010 $
b111000000101010 1
12
#4955
02
#4960
b111000100100100 $
b111000100100100 1
12
#4965
02
#4970
b111001000011110 $
b111001000011110 1
12
#4975
02
#4980
b111001100011000 $
b111001100011000 1
12
#4985
02
#4990
b111010000010010 $
b111010000010010 1
12
#4995
02
#5000
b111010100001100 $
b111010100001100 1
12
#5005
02
#5010
b111011000000110 $
b111011000000110 1
12
#5015
02
#5020
b111011100000000 $
b111011100000000 1
12
#5025
02
#5030
b111011111111010 $
b111011111111010 1
12
#5035
02
#5040
b111100011110100 $
b111100011110100 1
12
#5045
02
#5050
b111100111101110 $
b111100111101110 1
12
#5055
02
#5060
b111101011101000 $
b111101011101000 1
12
#5065
02
#5070
b111101111100010 $
b111101111100010 1
12
#5075
02
#5080
b111110011011100 $
b111110011011100 1
12
#5085
02
#5090
b111110111010110 $
b111110111010110 1
12
#5095
02
#5100
b111111011010000 $
b111111011010000 1
12
#5105
02
#5110
b111111111001010 $
b111111111001010 1
12
#5115
02
#5120
b000000011000100 $
b000000011000100 1
12
#5125
02
#5130
b000000110111110 $
b000000110111110 1
12
#5135
02
#5140
b000001010111000 $
b000001010111000 1
12
#5145
02
#5150
b000001110110010 $
b000001110110010 1
12
#5155
02
#5160
b000010010101100 $
b000010010101100 1
12
#5165
02
#5170
b000010110100110 $
b000010110100110 1
12
#5175
02
#5180
b000011010100000 $
b000011010100000 1
12
#5185
02
#5190
b000011110011010 $
b000011110011010 1
12
#5195
02
#5200
b000100010010100 $
b000100010010100 1
12
#5205
02
#5210
b000100110001110 $
b000100110001110 1
12
#5215
02
#5220
b000101010001000 $
b000101010001000 1
12
#5225
02
#5230
b000101110000010 $
b000101110000010 1
12
#5235
02
#5240
b000110001111100 $
b000110001111100 1
12
#5245
02
#5250
b000110101110110 $
b000110101110110 1
12
#5255
02
#5260
b000111001110000 $
b000111001110000 1
12
#5265
02
#5270
b000111101101010 $
b000111101101010 1
12
#5275
02
#5280
b001000001100100 $
b001000001100100 1
12
#5285
02
#5290
b001000101011110 $
b001000101011110 1
12
#5295
02
#5300
b001001001011000 $
b001001001011000 1
12
#5305
02
#5310
b001001101010010 $
b001001101010010 1
12
#5315
02
#5320
b001010001001100 $
b001010001001100 1
12
#5325
02
#5330
b001010101000110 $
b001010101000110 1
12
#5335
02
#5340
b001011001000000 $
b001011001000000 1
12
#5345
02
#5350
b001011100111010 $
b001011100111010 1
12
#5355
02
#5360
b001100000110100 $
b001100000110100 1
12
#5365
02
#5370
b001100100101110 $
b001100100101110 1
12
#5375
02
#5380
b001101000101000 $
b001101000101000 1
12
#5385
02
#5390
b001101100100010 $
b001101100100010 1
12
#5395
02
#5400
b001110000011100 $
b001110000011100 1
12
#5405
02
#5410
b001110100010110 $
b001110100010110 1
12
#5415
02
#5420
b001111000010000 $
b001111000010000 1
12
#5425
02
#5430
b001111100001010 $
b001111100001010 1
12
#5435
02
#5440
b010000000000100 $
b010000000000100 1
12
#5445
02
#5450
b010000011111110 $
b010000011111110 1
12
#5455
02
#5460
b010000111111000 $
b010000111111000 1
12
#5465
02
#5470
b010001011110010 $
b010001011110010 1
12
#5475
02
#5480
b010001111101100 $
b010001111101100 1
12
#5485
02
#5490
b010010011100110 $
b010010011100110 1
12
#5495
02
#5500
b010010111100000 $
b010010111100000 1
12
#5505
02
#5510
b010011011011010 $
b010011011011010 1
12
#5515
02
#5520
b010011111010100 $
b010011111010100 1
12
#5525
02
#5530
b010100011001110 $
b010100011001110 1
12
#5535
02
#5540
b010100111001000 $
b010100111001000 1
12
#5545
02
#5550
b010101011000010 $
b010101011000010 1
12
#5555
02
#5560
b010101110111100 $
b010101110111100 1
12
#5565
02
#5570
b010110010110110 $
b010110010110110 1
12
#5575
02
#5580
b010110110110000 $
b010110110110000 1
12
#5585
02
#5590
b010111010101010 $
b010111010101010 1
12
